Reader   1 Treatment   1
,FPF,TPF,OBS,THEOR
,1.0000,,1.0000
,0.2308,,0.3585
,0.1731,,0.3113
,0.0962,,0.1887
,0.0192,,0.0283
,1.0000,,,1.0000
,0.2281,,,0.3603
,0.1867,,,0.3050
,0.1041,,,0.1846
,0.0145,,,0.0306
,0.0002,0.0005
,0.0033,0.0074
,0.0070,0.0155
,0.0109,0.0234
,0.0151,0.0318
,0.0190,0.0395
,0.0229,0.0469
,0.0264,0.0535
,0.0303,0.0608
,0.0347,0.0687
,0.0388,0.0763
,0.0427,0.0832
,0.0469,0.0905
,0.0513,0.0983
,0.0552,0.1050
,0.0594,0.1121
,0.0638,0.1195
,0.0674,0.1256
,0.0717,0.1327
,0.0756,0.1392
,0.0797,0.1459
,0.0840,0.1528
,0.0884,0.1598
,0.0929,0.1671
,0.0965,0.1726
,0.1013,0.1802
,0.1050,0.1860
,0.1094,0.1928
,0.1133,0.1988
,0.1180,0.2059
,0.1221,0.2121
,0.1263,0.2184
,0.1305,0.2247
,0.1349,0.2312
,0.1386,0.2366
,0.1431,0.2432
,0.1469,0.2488
,0.1516,0.2555
,0.1555,0.2612
,0.1595,0.2669
,0.1636,0.2727
,0.1677,0.2785
,0.1727,0.2855
,0.1761,0.2902
,0.1803,0.2962
,0.1847,0.3022
,0.1891,0.3082
,0.1935,0.3143
,0.1971,0.3191
,0.2016,0.3253
,0.2057,0.3308
,0.2104,0.3370
,0.2141,0.3419
,0.2183,0.3476
,0.2221,0.3526
,0.2269,0.3588
,0.2308,0.3639
,0.2347,0.3689
,0.2396,0.3753
,0.2436,0.3803
,0.2476,0.3854
,0.2516,0.3905
,0.2561,0.3963
,0.2602,0.4014
,0.2643,0.4065
,0.2684,0.4117
,0.2726,0.4168
,0.2767,0.4219
,0.2814,0.4277
,0.2857,0.4329
,0.2899,0.4380
,0.2941,0.4432
,0.2984,0.4483
,0.3027,0.4535
,0.3070,0.4586
,0.3114,0.4637
,0.3152,0.4682
,0.3195,0.4734
,0.3239,0.4785
,0.3283,0.4836
,0.3327,0.4887
,0.3366,0.4932
,0.3411,0.4983
,0.3455,0.5034
,0.3500,0.5085
,0.3539,0.5129
,0.3584,0.5179
,0.3629,0.5230
,0.3668,0.5274
,0.3713,0.5324
,0.3759,0.5374
,0.3804,0.5424
,0.3844,0.5467
,0.3889,0.5517
,0.3935,0.5566
,0.3975,0.5609
,0.4020,0.5658
,0.4066,0.5707
,0.4112,0.5756
,0.4158,0.5804
,0.4198,0.5846
,0.4244,0.5894
,0.4289,0.5942
,0.4335,0.5990
,0.4381,0.6037
,0.4427,0.6084
,0.4473,0.6131
,0.4518,0.6177
,0.4564,0.6224
,0.4610,0.6270
,0.4656,0.6316
,0.4701,0.6361
,0.4747,0.6406
,0.4792,0.6451
,0.4838,0.6496
,0.4889,0.6546
,0.4934,0.6590
,0.4980,0.6633
,0.5030,0.6682
,0.5076,0.6725
,0.5132,0.6779
,0.5177,0.6821
,0.5221,0.6863
,0.5277,0.6915
,0.5322,0.6956
,0.5371,0.7003
,0.5416,0.7043
,0.5471,0.7093
,0.5520,0.7138
,0.5575,0.7188
,0.5618,0.7227
,0.5672,0.7275
,0.5726,0.7323
,0.5769,0.7361
,0.5823,0.7407
,0.5876,0.7454
,0.5929,0.7499
,0.5981,0.7545
,0.6033,0.7589
,0.6085,0.7633
,0.6137,0.7677
,0.6199,0.7728
,0.6249,0.7771
,0.6300,0.7812
,0.6360,0.7862
,0.6410,0.7902
,0.6469,0.7950
,0.6518,0.7990
,0.6577,0.8036
,0.6634,0.8082
,0.6692,0.8127
,0.6748,0.8171
,0.6804,0.8214
,0.6860,0.8257
,0.6915,0.8298
,0.6978,0.8346
,0.7032,0.8386
,0.7094,0.8432
,0.7155,0.8477
,0.7215,0.8521
,0.7275,0.8564
,0.7341,0.8611
,0.7399,0.8652
,0.7464,0.8698
,0.7528,0.8742
,0.7590,0.8785
,0.7652,0.8826
,0.7712,0.8867
,0.7771,0.8906
,0.7844,0.8954
,0.7901,0.8991
,0.7970,0.9035
,0.8038,0.9078
,0.8104,0.9119
,0.8168,0.9159
,0.8231,0.9197
,0.8304,0.9241
,0.8375,0.9283
,0.8443,0.9322
,0.8509,0.9360
,0.8573,0.9396
,0.8654,0.9441
,0.8722,0.9478
,0.8797,0.9518
,0.8868,0.9555
,0.8935,0.9589
,0.9014,0.9629
,0.9088,0.9665
,0.9158,0.9697
,0.9235,0.9733
,0.9306,0.9764
,0.9381,0.9797
,0.9458,0.9829
,0.9526,0.9856
,0.9614,0.9889
,0.9687,0.9915
,0.9764,0.9941
,0.9847,0.9966
,0.9916,0.9984
,1.0000,1.0000
Reader   2 Treatment   1
,FPF,TPF,OBS,THEOR
,1.0000,,1.0000
,0.2885,,0.2358
,0.1538,,0.1415
,0.0385,,0.0660
,1.0000,,,1.0000
,0.2532,,,0.2532
,0.1456,,,0.1456
,0.0570,,,0.0570
,0.0000,0.0000
,0.0073,0.0073
,0.0151,0.0151
,0.0228,0.0228
,0.0301,0.0301
,0.0373,0.0373
,0.0454,0.0454
,0.0526,0.0526
,0.0595,0.0595
,0.0657,0.0657
,0.0735,0.0735
,0.0806,0.0806
,0.0867,0.0867
,0.0931,0.0931
,0.0997,0.0997
,0.1065,0.1065
,0.1121,0.1121
,0.1194,0.1194
,0.1253,0.1253
,0.1313,0.1313
,0.1375,0.1375
,0.1437,0.1437
,0.1493,0.1493
,0.1550,0.1550
,0.1607,0.1607
,0.1666,0.1666
,0.1725,0.1725
,0.1776,0.1776
,0.1836,0.1836
,0.1888,0.1888
,0.1941,0.1941
,0.1993,0.1993
,0.2047,0.2047
,0.2101,0.2101
,0.2155,0.2155
,0.2209,0.2209
,0.2264,0.2264
,0.2310,0.2310
,0.2365,0.2365
,0.2411,0.2411
,0.2467,0.2467
,0.2514,0.2514
,0.2560,0.2560
,0.2607,0.2607
,0.2654,0.2654
,0.2701,0.2701
,0.2758,0.2758
,0.2805,0.2805
,0.2843,0.2843
,0.2890,0.2890
,0.2938,0.2938
,0.2985,0.2985
,0.3033,0.3033
,0.3081,0.3081
,0.3119,0.3119
,0.3166,0.3166
,0.3214,0.3214
,0.3257,0.3257
,0.3304,0.3304
,0.3342,0.3342
,0.3390,0.3390
,0.3428,0.3428
,0.3475,0.3475
,0.3522,0.3522
,0.3560,0.3560
,0.3608,0.3608
,0.3645,0.3645
,0.3692,0.3692
,0.3730,0.3730
,0.3772,0.3772
,0.3814,0.3814
,0.3852,0.3852
,0.3898,0.3898
,0.3936,0.3936
,0.3982,0.3982
,0.4019,0.4019
,0.4065,0.4065
,0.4102,0.4102
,0.4143,0.4143
,0.4180,0.4180
,0.4226,0.4226
,0.4262,0.4262
,0.4307,0.4307
,0.4344,0.4344
,0.4389,0.4389
,0.4425,0.4425
,0.4465,0.4465
,0.4505,0.4505
,0.4545,0.4545
,0.4585,0.4585
,0.4624,0.4624
,0.4664,0.4664
,0.4707,0.4707
,0.4742,0.4742
,0.4786,0.4786
,0.4820,0.4820
,0.4863,0.4863
,0.4901,0.4901
,0.4944,0.4944
,0.4978,0.4978
,0.5020,0.5020
,0.5062,0.5062
,0.5095,0.5095
,0.5137,0.5137
,0.5178,0.5178
,0.5219,0.5219
,0.5260,0.5260
,0.5300,0.5300
,0.5332,0.5332
,0.5372,0.5372
,0.5412,0.5412
,0.5452,0.5452
,0.5491,0.5491
,0.5538,0.5538
,0.5577,0.5577
,0.5616,0.5616
,0.5654,0.5654
,0.5692,0.5692
,0.5737,0.5737
,0.5775,0.5775
,0.5820,0.5820
,0.5857,0.5857
,0.5901,0.5901
,0.5937,0.5937
,0.5980,0.5980
,0.6023,0.6023
,0.6059,0.6059
,0.6101,0.6101
,0.6143,0.6143
,0.6185,0.6185
,0.6226,0.6226
,0.6267,0.6267
,0.6314,0.6314
,0.6354,0.6354
,0.6394,0.6394
,0.6440,0.6440
,0.6479,0.6479
,0.6524,0.6524
,0.6568,0.6568
,0.6612,0.6612
,0.6655,0.6655
,0.6699,0.6699
,0.6747,0.6747
,0.6789,0.6789
,0.6837,0.6837
,0.6878,0.6878
,0.6924,0.6924
,0.6970,0.6970
,0.7015,0.7015
,0.7059,0.7059
,0.7103,0.7103
,0.7157,0.7157
,0.7200,0.7200
,0.7247,0.7247
,0.7298,0.7298
,0.7339,0.7339
,0.7389,0.7389
,0.7438,0.7438
,0.7487,0.7487
,0.7534,0.7534
,0.7590,0.7590
,0.7636,0.7636
,0.7690,0.7690
,0.7742,0.7742
,0.7794,0.7794
,0.7844,0.7844
,0.7894,0.7894
,0.7950,0.7950
,0.7997,0.7997
,0.8058,0.8058
,0.8110,0.8110
,0.8168,0.8168
,0.8225,0.8225
,0.8279,0.8279
,0.8332,0.8332
,0.8396,0.8396
,0.8446,0.8446
,0.8506,0.8506
,0.8564,0.8564
,0.8630,0.8630
,0.8683,0.8683
,0.8745,0.8745
,0.8813,0.8813
,0.8868,0.8868
,0.8938,0.8938
,0.9004,0.9004
,0.9066,0.9066
,0.9139,0.9139
,0.9206,0.9206
,0.9268,0.9268
,0.9336,0.9336
,0.9398,0.9398
,0.9473,0.9473
,0.9547,0.9547
,0.9618,0.9618
,0.9690,0.9690
,0.9767,0.9767
,0.9840,0.9840
,0.9920,0.9920
,0.9995,0.9995
Reader   3 Treatment   1
,FPF,TPF,OBS,THEOR
,1.0000,,1.0000
,0.0962,,0.1887
,0.0577,,0.1132
,0.0192,,0.0472
,1.0000,,,1.0000
,0.0964,,,0.1885
,0.0547,,,0.1147
,0.0204,,,0.0466
,0.0002,0.0006
,0.0029,0.0073
,0.0063,0.0155
,0.0098,0.0236
,0.0131,0.0310
,0.0167,0.0386
,0.0201,0.0461
,0.0241,0.0545
,0.0278,0.0620
,0.0313,0.0691
,0.0345,0.0757
,0.0387,0.0839
,0.0425,0.0914
,0.0459,0.0980
,0.0496,0.1049
,0.0534,0.1121
,0.0574,0.1196
,0.0612,0.1266
,0.0647,0.1331
,0.0689,0.1406
,0.0727,0.1474
,0.0767,0.1545
,0.0808,0.1617
,0.0845,0.1682
,0.0883,0.1749
,0.0923,0.1816
,0.0958,0.1875
,0.0999,0.1946
,0.1036,0.2007
,0.1080,0.2080
,0.1118,0.2143
,0.1158,0.2207
,0.1198,0.2273
,0.1239,0.2339
,0.1274,0.2394
,0.1316,0.2462
,0.1360,0.2530
,0.1397,0.2588
,0.1434,0.2646
,0.1480,0.2716
,0.1518,0.2776
,0.1558,0.2835
,0.1597,0.2895
,0.1638,0.2956
,0.1679,0.3017
,0.1720,0.3078
,0.1754,0.3128
,0.1796,0.3190
,0.1839,0.3252
,0.1874,0.3303
,0.1918,0.3366
,0.1962,0.3429
,0.1998,0.3480
,0.2044,0.3544
,0.2080,0.3595
,0.2122,0.3653
,0.2159,0.3705
,0.2206,0.3769
,0.2244,0.3821
,0.2283,0.3873
,0.2326,0.3932
,0.2365,0.3984
,0.2409,0.4043
,0.2448,0.4095
,0.2488,0.4147
,0.2533,0.4206
,0.2573,0.4259
,0.2614,0.4312
,0.2655,0.4364
,0.2701,0.4423
,0.2742,0.4476
,0.2784,0.4528
,0.2825,0.4581
,0.2867,0.4633
,0.2909,0.4686
,0.2952,0.4738
,0.2994,0.4791
,0.3037,0.4843
,0.3080,0.4895
,0.3123,0.4947
,0.3166,0.4999
,0.3210,0.5051
,0.3253,0.5103
,0.3297,0.5155
,0.3341,0.5206
,0.3385,0.5258
,0.3429,0.5309
,0.3468,0.5354
,0.3513,0.5405
,0.3557,0.5456
,0.3602,0.5506
,0.3647,0.5557
,0.3691,0.5607
,0.3736,0.5657
,0.3781,0.5707
,0.3826,0.5757
,0.3872,0.5806
,0.3917,0.5856
,0.3962,0.5905
,0.4008,0.5953
,0.4053,0.6002
,0.4098,0.6050
,0.4144,0.6098
,0.4189,0.6146
,0.4235,0.6193
,0.4280,0.6241
,0.4326,0.6288
,0.4371,0.6334
,0.4417,0.6381
,0.4463,0.6427
,0.4514,0.6478
,0.4559,0.6524
,0.4610,0.6575
,0.4656,0.6619
,0.4707,0.6670
,0.4752,0.6714
,0.4803,0.6763
,0.4848,0.6806
,0.4905,0.6860
,0.4950,0.6903
,0.5000,0.6951
,0.5051,0.6998
,0.5095,0.7039
,0.5151,0.7091
,0.5201,0.7137
,0.5257,0.7187
,0.5301,0.7227
,0.5356,0.7277
,0.5411,0.7326
,0.5455,0.7364
,0.5509,0.7412
,0.5563,0.7459
,0.5617,0.7506
,0.5671,0.7552
,0.5725,0.7598
,0.5778,0.7643
,0.5831,0.7687
,0.5884,0.7731
,0.5936,0.7775
,0.5988,0.7817
,0.6051,0.7868
,0.6102,0.7909
,0.6164,0.7958
,0.6214,0.7998
,0.6275,0.8046
,0.6325,0.8085
,0.6384,0.8131
,0.6444,0.8176
,0.6502,0.8220
,0.6560,0.8264
,0.6618,0.8306
,0.6675,0.8348
,0.6731,0.8389
,0.6796,0.8436
,0.6851,0.8476
,0.6915,0.8521
,0.6978,0.8564
,0.7040,0.8607
,0.7102,0.8649
,0.7162,0.8690
,0.7222,0.8730
,0.7289,0.8774
,0.7355,0.8817
,0.7412,0.8854
,0.7476,0.8895
,0.7539,0.8934
,0.7601,0.8973
,0.7677,0.9019
,0.7737,0.9055
,0.7809,0.9098
,0.7866,0.9132
,0.7936,0.9172
,0.8004,0.9211
,0.8071,0.9248
,0.8148,0.9290
,0.8211,0.9324
,0.8284,0.9363
,0.8355,0.9399
,0.8423,0.9434
,0.8489,0.9467
,0.8563,0.9504
,0.8635,0.9538
,0.8713,0.9574
,0.8787,0.9608
,0.8858,0.9640
,0.8925,0.9669
,0.9004,0.9702
,0.9079,0.9732
,0.9148,0.9760
,0.9225,0.9789
,0.9296,0.9815
,0.9382,0.9845
,0.9458,0.9871
,0.9526,0.9892
,0.9613,0.9918
,0.9685,0.9938
,0.9762,0.9957
,0.9845,0.9976
,0.9914,0.9989
,1.0000,1.0000
Reader   4 Treatment   1
,FPF,TPF,OBS,THEOR
,1.0000,,1.0000
,0.3654,,0.4434
,0.3077,,0.4057
,0.0577,,0.0755
,1.0000,,,1.0000
,0.3626,,,0.4450
,0.3208,,,0.3994
,0.0540,,,0.0772
,0.0004,0.0006
,0.0048,0.0076
,0.0101,0.0155
,0.0153,0.0232
,0.0208,0.0312
,0.0260,0.0385
,0.0309,0.0455
,0.0366,0.0534
,0.0417,0.0604
,0.0473,0.0681
,0.0518,0.0743
,0.0575,0.0819
,0.0627,0.0889
,0.0682,0.0963
,0.0731,0.1028
,0.0782,0.1095
,0.0836,0.1165
,0.0886,0.1230
,0.0932,0.1290
,0.0992,0.1368
,0.1042,0.1432
,0.1093,0.1497
,0.1140,0.1556
,0.1187,0.1616
,0.1243,0.1686
,0.1286,0.1740
,0.1337,0.1804
,0.1381,0.1859
,0.1435,0.1926
,0.1481,0.1983
,0.1529,0.2042
,0.1577,0.2101
,0.1626,0.2161
,0.1676,0.2222
,0.1719,0.2273
,0.1770,0.2336
,0.1814,0.2388
,0.1867,0.2452
,0.1912,0.2505
,0.1957,0.2560
,0.2003,0.2614
,0.2049,0.2669
,0.2096,0.2725
,0.2143,0.2780
,0.2182,0.2825
,0.2230,0.2882
,0.2279,0.2939
,0.2318,0.2985
,0.2368,0.3043
,0.2408,0.3089
,0.2458,0.3147
,0.2499,0.3194
,0.2540,0.3241
,0.2591,0.3300
,0.2633,0.3348
,0.2674,0.3395
,0.2716,0.3443
,0.2759,0.3491
,0.2806,0.3545
,0.2849,0.3594
,0.2892,0.3642
,0.2935,0.3691
,0.2979,0.3739
,0.3022,0.3788
,0.3066,0.3837
,0.3110,0.3886
,0.3154,0.3935
,0.3193,0.3978
,0.3238,0.4027
,0.3282,0.4076
,0.3322,0.4119
,0.3367,0.4168
,0.3406,0.4212
,0.3451,0.4261
,0.3491,0.4304
,0.3536,0.4353
,0.3571,0.4390
,0.3616,0.4440
,0.3662,0.4489
,0.3702,0.4532
,0.3742,0.4576
,0.3789,0.4625
,0.3823,0.4662
,0.3869,0.4711
,0.3910,0.4754
,0.3956,0.4803
,0.3997,0.4846
,0.4037,0.4889
,0.4078,0.4932
,0.4124,0.4981
,0.4159,0.5017
,0.4206,0.5066
,0.4247,0.5108
,0.4293,0.5157
,0.4328,0.5193
,0.4375,0.5241
,0.4415,0.5283
,0.4462,0.5331
,0.4497,0.5367
,0.4544,0.5415
,0.4584,0.5457
,0.4631,0.5504
,0.4671,0.5546
,0.4712,0.5587
,0.4758,0.5634
,0.4799,0.5675
,0.4845,0.5722
,0.4880,0.5756
,0.4926,0.5803
,0.4972,0.5849
,0.5012,0.5889
,0.5058,0.5935
,0.5104,0.5980
,0.5144,0.6020
,0.5189,0.6065
,0.5235,0.6110
,0.5274,0.6149
,0.5320,0.6193
,0.5365,0.6238
,0.5410,0.6282
,0.5455,0.6325
,0.5499,0.6369
,0.5544,0.6412
,0.5588,0.6455
,0.5632,0.6497
,0.5676,0.6540
,0.5720,0.6582
,0.5764,0.6624
,0.5813,0.6670
,0.5856,0.6712
,0.5910,0.6763
,0.5953,0.6803
,0.5996,0.6844
,0.6049,0.6894
,0.6091,0.6933
,0.6144,0.6982
,0.6185,0.7021
,0.6237,0.7069
,0.6284,0.7112
,0.6335,0.7160
,0.6381,0.7202
,0.6431,0.7248
,0.6481,0.7294
,0.6531,0.7340
,0.6581,0.7384
,0.6630,0.7429
,0.6678,0.7473
,0.6727,0.7516
,0.6784,0.7568
,0.6831,0.7610
,0.6878,0.7652
,0.6934,0.7701
,0.6989,0.7750
,0.7044,0.7798
,0.7089,0.7837
,0.7142,0.7884
,0.7195,0.7930
,0.7256,0.7983
,0.7307,0.8027
,0.7358,0.8071
,0.7416,0.8121
,0.7474,0.8170
,0.7531,0.8218
,0.7587,0.8265
,0.7641,0.8311
,0.7703,0.8363
,0.7764,0.8413
,0.7816,0.8456
,0.7874,0.8504
,0.7932,0.8551
,0.7995,0.8602
,0.8056,0.8652
,0.8117,0.8701
,0.8182,0.8753
,0.8245,0.8803
,0.8307,0.8852
,0.8367,0.8899
,0.8426,0.8945
,0.8494,0.8997
,0.8559,0.9047
,0.8622,0.9096
,0.8693,0.9149
,0.8752,0.9193
,0.8826,0.9248
,0.8897,0.9300
,0.8964,0.9349
,0.9028,0.9394
,0.9103,0.9448
,0.9173,0.9497
,0.9250,0.9550
,0.9321,0.9598
,0.9386,0.9642
,0.9464,0.9693
,0.9533,0.9738
,0.9608,0.9785
,0.9684,0.9831
,0.9763,0.9878
,0.9849,0.9926
,0.9918,0.9963
,1.0000,1.0000
Reader   5 Treatment   1
,FPF,TPF,OBS,THEOR
,1.0000,,1.0000
,0.2115,,0.3019
,0.1923,,0.2453
,0.0769,,0.1698
,0.0000,,0.0849
,1.0000,,,1.0000
,0.1892,,,0.3158
,0.1490,,,0.2702
,0.0755,,,0.1744
,0.0197,,,0.0747
,0.0000,0.0000
,0.0005,0.0075
,0.0015,0.0155
,0.0030,0.0232
,0.0050,0.0319
,0.0070,0.0392
,0.0095,0.0475
,0.0120,0.0549
,0.0149,0.0629
,0.0175,0.0694
,0.0208,0.0773
,0.0240,0.0845
,0.0275,0.0921
,0.0313,0.1000
,0.0348,0.1068
,0.0385,0.1138
,0.0424,0.1210
,0.0466,0.1284
,0.0511,0.1361
,0.0548,0.1423
,0.0597,0.1503
,0.0638,0.1567
,0.0681,0.1633
,0.0725,0.1700
,0.0771,0.1768
,0.0818,0.1836
,0.0867,0.1906
,0.0911,0.1967
,0.0963,0.2038
,0.1002,0.2091
,0.1057,0.2163
,0.1098,0.2218
,0.1148,0.2281
,0.1198,0.2346
,0.1250,0.2410
,0.1294,0.2466
,0.1348,0.2531
,0.1394,0.2587
,0.1441,0.2643
,0.1488,0.2700
,0.1545,0.2766
,0.1594,0.2822
,0.1643,0.2879
,0.1693,0.2936
,0.1744,0.2993
,0.1795,0.3050
,0.1837,0.3097
,0.1889,0.3155
,0.1942,0.3212
,0.1986,0.3259
,0.2039,0.3316
,0.2092,0.3373
,0.2137,0.3420
,0.2191,0.3477
,0.2237,0.3525
,0.2291,0.3581
,0.2337,0.3628
,0.2383,0.3675
,0.2439,0.3732
,0.2485,0.3779
,0.2531,0.3825
,0.2578,0.3872
,0.2634,0.3928
,0.2681,0.3974
,0.2728,0.4021
,0.2775,0.4067
,0.2822,0.4113
,0.2879,0.4168
,0.2927,0.4213
,0.2974,0.4259
,0.3021,0.4304
,0.3069,0.4349
,0.3116,0.4394
,0.3164,0.4439
,0.3211,0.4484
,0.3259,0.4528
,0.3306,0.4573
,0.3354,0.4617
,0.3411,0.4669
,0.3458,0.4713
,0.3505,0.4756
,0.3553,0.4799
,0.3600,0.4842
,0.3647,0.4885
,0.3694,0.4928
,0.3741,0.4970
,0.3788,0.5012
,0.3834,0.5054
,0.3881,0.5096
,0.3928,0.5137
,0.3974,0.5178
,0.4020,0.5219
,0.4076,0.5268
,0.4121,0.5309
,0.4167,0.5349
,0.4213,0.5389
,0.4258,0.5429
,0.4304,0.5468
,0.4358,0.5515
,0.4403,0.5554
,0.4448,0.5593
,0.4501,0.5639
,0.4546,0.5677
,0.4590,0.5715
,0.4643,0.5760
,0.4686,0.5797
,0.4730,0.5834
,0.4782,0.5879
,0.4825,0.5915
,0.4876,0.5959
,0.4919,0.5995
,0.4970,0.6037
,0.5020,0.6080
,0.5062,0.6115
,0.5112,0.6157
,0.5162,0.6198
,0.5211,0.6239
,0.5260,0.6280
,0.5301,0.6314
,0.5349,0.6354
,0.5397,0.6393
,0.5445,0.6433
,0.5492,0.6472
,0.5547,0.6517
,0.5593,0.6555
,0.5639,0.6593
,0.5685,0.6630
,0.5738,0.6673
,0.5783,0.6710
,0.5835,0.6752
,0.5887,0.6794
,0.5930,0.6830
,0.5988,0.6877
,0.6031,0.6912
,0.6081,0.6952
,0.6137,0.6997
,0.6179,0.7030
,0.6234,0.7075
,0.6281,0.7113
,0.6335,0.7156
,0.6388,0.7199
,0.6434,0.7235
,0.6486,0.7277
,0.6537,0.7318
,0.6588,0.7358
,0.6638,0.7398
,0.6687,0.7437
,0.6748,0.7485
,0.6796,0.7523
,0.6849,0.7565
,0.6902,0.7607
,0.6959,0.7652
,0.7005,0.7688
,0.7060,0.7732
,0.7115,0.7775
,0.7169,0.7817
,0.7222,0.7859
,0.7285,0.7908
,0.7336,0.7948
,0.7386,0.7987
,0.7445,0.8033
,0.7503,0.8078
,0.7559,0.8123
,0.7615,0.8166
,0.7669,0.8208
,0.7731,0.8256
,0.7783,0.8296
,0.7850,0.8349
,0.7899,0.8387
,0.7964,0.8437
,0.8026,0.8485
,0.8086,0.8532
,0.8145,0.8577
,0.8202,0.8621
,0.8271,0.8675
,0.8324,0.8716
,0.8389,0.8765
,0.8451,0.8813
,0.8523,0.8869
,0.8580,0.8912
,0.8646,0.8963
,0.8709,0.9011
,0.8779,0.9065
,0.8845,0.9116
,0.8908,0.9164
,0.8976,0.9216
,0.9039,0.9265
,0.9114,0.9322
,0.9183,0.9375
,0.9259,0.9434
,0.9329,0.9487
,0.9391,0.9535
,0.9467,0.9593
,0.9542,0.9650
,0.9614,0.9705
,0.9686,0.9760
,0.9765,0.9820
,0.9838,0.9876
,0.9919,0.9938
,0.9995,0.9996
Reader   1 Treatment   2
,FPF,TPF,OBS,THEOR
,1.0000,,1.0000
,0.4423,,0.4811
,0.3654,,0.4151
,0.2115,,0.2830
,0.0385,,0.0377
,1.0000,,,1.0000
,0.4366,,,0.4841
,0.3675,,,0.4143
,0.2324,,,0.2727
,0.0306,,,0.0416
,0.0004,0.0007
,0.0054,0.0081
,0.0103,0.0151
,0.0161,0.0228
,0.0227,0.0315
,0.0275,0.0377
,0.0341,0.0461
,0.0395,0.0529
,0.0455,0.0603
,0.0508,0.0668
,0.0572,0.0746
,0.0634,0.0821
,0.0684,0.0881
,0.0744,0.0953
,0.0799,0.1018
,0.0857,0.1086
,0.0917,0.1157
,0.0970,0.1218
,0.1024,0.1281
,0.1080,0.1346
,0.1138,0.1413
,0.1186,0.1468
,0.1247,0.1538
,0.1298,0.1595
,0.1349,0.1654
,0.1402,0.1713
,0.1456,0.1774
,0.1511,0.1836
,0.1567,0.1899
,0.1618,0.1955
,0.1669,0.2012
,0.1721,0.2069
,0.1766,0.2119
,0.1819,0.2178
,0.1873,0.2238
,0.1920,0.2289
,0.1968,0.2342
,0.2016,0.2394
,0.2065,0.2447
,0.2114,0.2501
,0.2164,0.2555
,0.2215,0.2610
,0.2266,0.2665
,0.2309,0.2711
,0.2360,0.2767
,0.2404,0.2813
,0.2457,0.2870
,0.2501,0.2917
,0.2545,0.2965
,0.2590,0.3012
,0.2645,0.3070
,0.2690,0.3118
,0.2736,0.3167
,0.2782,0.3215
,0.2819,0.3254
,0.2866,0.3303
,0.2912,0.3353
,0.2959,0.3402
,0.3007,0.3451
,0.3044,0.3491
,0.3092,0.3541
,0.3140,0.3591
,0.3178,0.3631
,0.3227,0.3681
,0.3265,0.3721
,0.3314,0.3771
,0.3353,0.3811
,0.3401,0.3862
,0.3441,0.3902
,0.3485,0.3947
,0.3524,0.3988
,0.3573,0.4038
,0.3613,0.4079
,0.3652,0.4119
,0.3702,0.4170
,0.3742,0.4211
,0.3781,0.4251
,0.3821,0.4292
,0.3871,0.4342
,0.3911,0.4383
,0.3951,0.4424
,0.3991,0.4464
,0.4036,0.4510
,0.4076,0.4550
,0.4116,0.4590
,0.4161,0.4636
,0.4201,0.4676
,0.4241,0.4716
,0.4286,0.4762
,0.4327,0.4802
,0.4367,0.4842
,0.4407,0.4882
,0.4452,0.4927
,0.4492,0.4967
,0.4532,0.5007
,0.4577,0.5051
,0.4617,0.5091
,0.4656,0.5131
,0.4701,0.5175
,0.4741,0.5214
,0.4781,0.5254
,0.4825,0.5298
,0.4865,0.5337
,0.4910,0.5381
,0.4949,0.5419
,0.4993,0.5463
,0.5033,0.5502
,0.5077,0.5545
,0.5116,0.5583
,0.5160,0.5626
,0.5199,0.5664
,0.5247,0.5711
,0.5286,0.5749
,0.5325,0.5787
,0.5373,0.5833
,0.5411,0.5871
,0.5459,0.5917
,0.5497,0.5954
,0.5545,0.6000
,0.5583,0.6036
,0.5630,0.6082
,0.5667,0.6118
,0.5714,0.6163
,0.5761,0.6208
,0.5798,0.6243
,0.5844,0.6288
,0.5890,0.6332
,0.5935,0.6375
,0.5972,0.6410
,0.6017,0.6453
,0.6062,0.6496
,0.6107,0.6539
,0.6151,0.6581
,0.6196,0.6623
,0.6240,0.6665
,0.6292,0.6714
,0.6335,0.6755
,0.6379,0.6796
,0.6430,0.6844
,0.6472,0.6885
,0.6515,0.6924
,0.6565,0.6971
,0.6615,0.7018
,0.6656,0.7057
,0.6705,0.7103
,0.6754,0.7148
,0.6802,0.7193
,0.6850,0.7238
,0.6897,0.7282
,0.6944,0.7325
,0.6998,0.7375
,0.7044,0.7418
,0.7097,0.7467
,0.7142,0.7508
,0.7201,0.7563
,0.7245,0.7603
,0.7303,0.7656
,0.7345,0.7695
,0.7402,0.7747
,0.7457,0.7797
,0.7512,0.7847
,0.7559,0.7890
,0.7612,0.7938
,0.7664,0.7986
,0.7721,0.8038
,0.7772,0.8083
,0.7834,0.8139
,0.7882,0.8183
,0.7942,0.8237
,0.8000,0.8289
,0.8057,0.8340
,0.8113,0.8390
,0.8178,0.8448
,0.8231,0.8495
,0.8293,0.8550
,0.8353,0.8603
,0.8411,0.8655
,0.8468,0.8705
,0.8532,0.8762
,0.8602,0.8823
,0.8653,0.8868
,0.8719,0.8925
,0.8782,0.8980
,0.8857,0.9045
,0.8914,0.9095
,0.8981,0.9153
,0.9058,0.9219
,0.9118,0.9270
,0.9185,0.9328
,0.9257,0.9389
,0.9333,0.9454
,0.9402,0.9512
,0.9464,0.9564
,0.9546,0.9632
,0.9616,0.9691
,0.9694,0.9755
,0.9770,0.9817
,0.9838,0.9872
,0.9920,0.9938
,0.9999,0.9999
Reader   2 Treatment   2
,FPF,TPF,OBS,THEOR
,1.0000,,1.0000
,0.3269,,0.3113
,0.1923,,0.1887
,0.0385,,0.0755
,1.0000,,,1.0000
,0.3012,,,0.3244
,0.1761,,,0.1972
,0.0550,,,0.0674
,0.0000,0.0000
,0.0051,0.0075
,0.0111,0.0155
,0.0172,0.0232
,0.0232,0.0305
,0.0292,0.0376
,0.0361,0.0457
,0.0423,0.0529
,0.0492,0.0608
,0.0547,0.0671
,0.0606,0.0737
,0.0669,0.0808
,0.0736,0.0881
,0.0794,0.0945
,0.0854,0.1011
,0.0917,0.1080
,0.0982,0.1150
,0.1036,0.1208
,0.1091,0.1267
,0.1155,0.1335
,0.1213,0.1397
,0.1272,0.1460
,0.1333,0.1524
,0.1386,0.1581
,0.1441,0.1639
,0.1497,0.1697
,0.1553,0.1756
,0.1611,0.1816
,0.1660,0.1868
,0.1719,0.1929
,0.1770,0.1981
,0.1830,0.2043
,0.1881,0.2097
,0.1934,0.2151
,0.1986,0.2205
,0.2040,0.2260
,0.2093,0.2314
,0.2138,0.2360
,0.2192,0.2416
,0.2247,0.2471
,0.2292,0.2518
,0.2338,0.2564
,0.2393,0.2621
,0.2439,0.2667
,0.2486,0.2714
,0.2542,0.2771
,0.2588,0.2818
,0.2635,0.2865
,0.2682,0.2913
,0.2729,0.2960
,0.2776,0.3008
,0.2823,0.3055
,0.2871,0.3102
,0.2918,0.3150
,0.2965,0.3197
,0.3013,0.3245
,0.3051,0.3283
,0.3098,0.3330
,0.3146,0.3378
,0.3193,0.3425
,0.3231,0.3463
,0.3279,0.3510
,0.3326,0.3558
,0.3364,0.3595
,0.3411,0.3642
,0.3459,0.3689
,0.3496,0.3727
,0.3544,0.3774
,0.3586,0.3816
,0.3633,0.3863
,0.3671,0.3900
,0.3718,0.3946
,0.3755,0.3983
,0.3802,0.4029
,0.3840,0.4066
,0.3886,0.4112
,0.3928,0.4154
,0.3970,0.4195
,0.4016,0.4240
,0.4053,0.4276
,0.4099,0.4322
,0.4136,0.4358
,0.4181,0.4403
,0.4218,0.4439
,0.4263,0.4483
,0.4299,0.4519
,0.4345,0.4563
,0.4385,0.4603
,0.4430,0.4647
,0.4466,0.4682
,0.4510,0.4725
,0.4550,0.4764
,0.4594,0.4807
,0.4629,0.4842
,0.4673,0.4884
,0.4717,0.4927
,0.4751,0.4961
,0.4795,0.5003
,0.4838,0.5045
,0.4881,0.5087
,0.4915,0.5120
,0.4957,0.5161
,0.4999,0.5202
,0.5041,0.5243
,0.5083,0.5284
,0.5124,0.5324
,0.5166,0.5364
,0.5207,0.5404
,0.5247,0.5444
,0.5288,0.5483
,0.5328,0.5522
,0.5368,0.5561
,0.5408,0.5600
,0.5448,0.5638
,0.5495,0.5684
,0.5534,0.5722
,0.5573,0.5759
,0.5619,0.5804
,0.5658,0.5841
,0.5696,0.5878
,0.5741,0.5922
,0.5786,0.5965
,0.5823,0.6001
,0.5867,0.6044
,0.5911,0.6086
,0.5955,0.6128
,0.5991,0.6163
,0.6034,0.6204
,0.6076,0.6245
,0.6118,0.6286
,0.6167,0.6333
,0.6208,0.6373
,0.6249,0.6412
,0.6297,0.6458
,0.6337,0.6497
,0.6383,0.6542
,0.6423,0.6579
,0.6475,0.6630
,0.6513,0.6667
,0.6564,0.6716
,0.6602,0.6752
,0.6652,0.6800
,0.6695,0.6841
,0.6744,0.6888
,0.6792,0.6934
,0.6833,0.6974
,0.6880,0.7019
,0.6926,0.7063
,0.6972,0.7107
,0.7017,0.7150
,0.7072,0.7204
,0.7116,0.7246
,0.7159,0.7287
,0.7212,0.7338
,0.7265,0.7388
,0.7306,0.7427
,0.7356,0.7476
,0.7406,0.7524
,0.7455,0.7570
,0.7513,0.7626
,0.7560,0.7671
,0.7615,0.7724
,0.7660,0.7767
,0.7714,0.7818
,0.7766,0.7868
,0.7817,0.7917
,0.7875,0.7972
,0.7924,0.8019
,0.7987,0.8080
,0.8033,0.8124
,0.8094,0.8181
,0.8152,0.8237
,0.8209,0.8291
,0.8264,0.8344
,0.8317,0.8395
,0.8382,0.8457
,0.8432,0.8505
,0.8492,0.8562
,0.8562,0.8629
,0.8618,0.8682
,0.8682,0.8743
,0.8743,0.8802
,0.8802,0.8858
,0.8867,0.8920
,0.8937,0.8987
,0.8995,0.9042
,0.9058,0.9102
,0.9131,0.9171
,0.9199,0.9236
,0.9261,0.9296
,0.9330,0.9361
,0.9403,0.9431
,0.9478,0.9502
,0.9543,0.9564
,0.9614,0.9632
,0.9687,0.9701
,0.9765,0.9776
,0.9838,0.9846
,0.9919,0.9923
,0.9995,0.9995
Reader   3 Treatment   2
,FPF,TPF,OBS,THEOR
,1.0000,,1.0000
,0.1731,,0.2830
,0.0962,,0.1887
,0.0192,,0.0660
,1.0000,,,1.0000
,0.1730,,,0.2831
,0.0955,,,0.1891
,0.0196,,,0.0659
,0.0000,0.0000
,0.0007,0.0075
,0.0021,0.0155
,0.0040,0.0232
,0.0064,0.0319
,0.0089,0.0392
,0.0119,0.0475
,0.0148,0.0549
,0.0178,0.0619
,0.0211,0.0694
,0.0249,0.0773
,0.0285,0.0845
,0.0325,0.0921
,0.0368,0.0999
,0.0406,0.1067
,0.0447,0.1138
,0.0490,0.1210
,0.0536,0.1284
,0.0575,0.1345
,0.0625,0.1423
,0.0667,0.1486
,0.0711,0.1551
,0.0756,0.1616
,0.0803,0.1683
,0.0851,0.1750
,0.0901,0.1819
,0.0953,0.1888
,0.0999,0.1949
,0.1046,0.2011
,0.1094,0.2073
,0.1144,0.2136
,0.1194,0.2199
,0.1246,0.2263
,0.1290,0.2318
,0.1343,0.2382
,0.1390,0.2438
,0.1444,0.2503
,0.1492,0.2559
,0.1540,0.2615
,0.1589,0.2671
,0.1639,0.2728
,0.1689,0.2784
,0.1739,0.2841
,0.1790,0.2898
,0.1842,0.2955
,0.1893,0.3011
,0.1937,0.3059
,0.1990,0.3116
,0.2043,0.3173
,0.2087,0.3221
,0.2141,0.3278
,0.2186,0.3325
,0.2241,0.3382
,0.2286,0.3429
,0.2332,0.3477
,0.2387,0.3533
,0.2434,0.3581
,0.2480,0.3628
,0.2536,0.3684
,0.2582,0.3731
,0.2629,0.3778
,0.2676,0.3825
,0.2723,0.3872
,0.2770,0.3918
,0.2827,0.3974
,0.2874,0.4020
,0.2921,0.4066
,0.2969,0.4112
,0.3016,0.4158
,0.3064,0.4204
,0.3111,0.4249
,0.3159,0.4295
,0.3206,0.4340
,0.3254,0.4385
,0.3301,0.4430
,0.3349,0.4474
,0.3396,0.4519
,0.3443,0.4563
,0.3491,0.4607
,0.3538,0.4651
,0.3585,0.4695
,0.3632,0.4738
,0.3679,0.4782
,0.3726,0.4825
,0.3773,0.4868
,0.3820,0.4910
,0.3867,0.4953
,0.3913,0.4995
,0.3960,0.5037
,0.4006,0.5079
,0.4052,0.5120
,0.4098,0.5161
,0.4144,0.5202
,0.4190,0.5243
,0.4235,0.5284
,0.4281,0.5324
,0.4326,0.5364
,0.4371,0.5404
,0.4425,0.5452
,0.4470,0.5491
,0.4514,0.5530
,0.4558,0.5569
,0.4603,0.5608
,0.4655,0.5654
,0.4699,0.5692
,0.4742,0.5729
,0.4794,0.5774
,0.4837,0.5812
,0.4889,0.5856
,0.4931,0.5893
,0.4982,0.5936
,0.5024,0.5973
,0.5074,0.6016
,0.5116,0.6051
,0.5166,0.6093
,0.5215,0.6135
,0.5256,0.6170
,0.5304,0.6211
,0.5352,0.6252
,0.5400,0.6293
,0.5448,0.6333
,0.5495,0.6373
,0.5542,0.6413
,0.5589,0.6452
,0.5635,0.6491
,0.5681,0.6529
,0.5726,0.6567
,0.5779,0.6611
,0.5823,0.6648
,0.5875,0.6691
,0.5919,0.6728
,0.5970,0.6770
,0.6020,0.6812
,0.6070,0.6853
,0.6119,0.6894
,0.6168,0.6934
,0.6216,0.6974
,0.6264,0.7013
,0.6318,0.7058
,0.6364,0.7096
,0.6417,0.7139
,0.6463,0.7177
,0.6514,0.7219
,0.6565,0.7261
,0.6616,0.7302
,0.6665,0.7343
,0.6714,0.7382
,0.6769,0.7427
,0.6816,0.7466
,0.6875,0.7514
,0.6922,0.7551
,0.6979,0.7597
,0.7024,0.7634
,0.7079,0.7679
,0.7134,0.7723
,0.7187,0.7766
,0.7240,0.7809
,0.7292,0.7850
,0.7353,0.7900
,0.7402,0.7940
,0.7461,0.7987
,0.7519,0.8033
,0.7575,0.8078
,0.7630,0.8122
,0.7684,0.8166
,0.7737,0.8208
,0.7797,0.8256
,0.7856,0.8303
,0.7913,0.8349
,0.7977,0.8400
,0.8031,0.8443
,0.8091,0.8491
,0.8150,0.8538
,0.8207,0.8583
,0.8276,0.8638
,0.8329,0.8680
,0.8393,0.8731
,0.8455,0.8780
,0.8527,0.8837
,0.8584,0.8882
,0.8649,0.8934
,0.8712,0.8984
,0.8782,0.9039
,0.8848,0.9091
,0.8911,0.9141
,0.8978,0.9194
,0.9042,0.9245
,0.9116,0.9303
,0.9185,0.9358
,0.9261,0.9418
,0.9330,0.9472
,0.9393,0.9522
,0.9469,0.9581
,0.9543,0.9640
,0.9615,0.9696
,0.9687,0.9753
,0.9765,0.9815
,0.9839,0.9873
,0.9919,0.9936
,0.9995,0.9996
Reader   4 Treatment   2
,FPF,TPF,OBS,THEOR
,1.0000,,1.0000
,0.4423,,0.5189
,0.4038,,0.4717
,0.1538,,0.1132
,1.0000,,,1.0000
,0.4457,,,0.5168
,0.4044,,,0.4709
,0.1125,,,0.1333
,0.0006,0.0007
,0.0064,0.0076
,0.0134,0.0159
,0.0193,0.0228
,0.0262,0.0311
,0.0320,0.0380
,0.0390,0.0462
,0.0448,0.0531
,0.0506,0.0600
,0.0563,0.0668
,0.0621,0.0736
,0.0678,0.0804
,0.0747,0.0886
,0.0805,0.0953
,0.0862,0.1021
,0.0907,0.1075
,0.0964,0.1142
,0.1021,0.1210
,0.1078,0.1277
,0.1134,0.1343
,0.1185,0.1403
,0.1242,0.1470
,0.1286,0.1523
,0.1343,0.1589
,0.1399,0.1655
,0.1443,0.1708
,0.1499,0.1773
,0.1543,0.1826
,0.1599,0.1891
,0.1643,0.1943
,0.1698,0.2008
,0.1742,0.2059
,0.1797,0.2124
,0.1841,0.2175
,0.1885,0.2226
,0.1939,0.2290
,0.1983,0.2341
,0.2026,0.2392
,0.2080,0.2455
,0.2123,0.2506
,0.2166,0.2556
,0.2215,0.2612
,0.2257,0.2662
,0.2300,0.2712
,0.2353,0.2774
,0.2396,0.2823
,0.2438,0.2873
,0.2480,0.2922
,0.2522,0.2971
,0.2569,0.3025
,0.2611,0.3074
,0.2653,0.3122
,0.2700,0.3176
,0.2741,0.3224
,0.2783,0.3272
,0.2829,0.3326
,0.2870,0.3373
,0.2911,0.3421
,0.2952,0.3468
,0.2998,0.3520
,0.3038,0.3567
,0.3079,0.3613
,0.3119,0.3660
,0.3164,0.3712
,0.3204,0.3758
,0.3244,0.3803
,0.3284,0.3849
,0.3329,0.3900
,0.3368,0.3945
,0.3408,0.3990
,0.3447,0.4035
,0.3491,0.4085
,0.3530,0.4129
,0.3569,0.4173
,0.3612,0.4222
,0.3651,0.4266
,0.3689,0.4310
,0.3737,0.4364
,0.3775,0.4407
,0.3813,0.4450
,0.3851,0.4492
,0.3893,0.4540
,0.3931,0.4582
,0.3978,0.4635
,0.4015,0.4676
,0.4052,0.4718
,0.4093,0.4764
,0.4130,0.4805
,0.4176,0.4857
,0.4212,0.4897
,0.4253,0.4943
,0.4294,0.4988
,0.4330,0.5028
,0.4375,0.5077
,0.4410,0.5117
,0.4455,0.5166
,0.4495,0.5210
,0.4538,0.5258
,0.4573,0.5297
,0.4617,0.5345
,0.4652,0.5383
,0.4695,0.5430
,0.4738,0.5477
,0.4780,0.5523
,0.4814,0.5561
,0.4857,0.5607
,0.4899,0.5652
,0.4940,0.5698
,0.4982,0.5743
,0.5023,0.5787
,0.5064,0.5832
,0.5105,0.5876
,0.5146,0.5919
,0.5186,0.5963
,0.5226,0.6006
,0.5274,0.6057
,0.5314,0.6099
,0.5353,0.6141
,0.5400,0.6191
,0.5439,0.6232
,0.5486,0.6281
,0.5524,0.6322
,0.5570,0.6370
,0.5615,0.6418
,0.5653,0.6457
,0.5698,0.6504
,0.5742,0.6551
,0.5786,0.6597
,0.5830,0.6642
,0.5874,0.6687
,0.5917,0.6732
,0.5967,0.6783
,0.6009,0.6827
,0.6051,0.6870
,0.6100,0.6920
,0.6148,0.6969
,0.6189,0.7011
,0.6243,0.7066
,0.6284,0.7106
,0.6337,0.7160
,0.6376,0.7199
,0.6428,0.7251
,0.6480,0.7303
,0.6525,0.7347
,0.6575,0.7397
,0.6625,0.7446
,0.6674,0.7495
,0.6723,0.7542
,0.6771,0.7589
,0.6819,0.7636
,0.6866,0.7681
,0.6924,0.7737
,0.6970,0.7781
,0.7027,0.7835
,0.7072,0.7878
,0.7127,0.7930
,0.7181,0.7981
,0.7234,0.8030
,0.7287,0.8079
,0.7349,0.8137
,0.7400,0.8183
,0.7450,0.8229
,0.7509,0.8283
,0.7567,0.8335
,0.7623,0.8386
,0.7679,0.8435
,0.7733,0.8484
,0.7796,0.8538
,0.7857,0.8591
,0.7916,0.8642
,0.7974,0.8692
,0.8039,0.8747
,0.8102,0.8800
,0.8163,0.8851
,0.8222,0.8900
,0.8280,0.8947
,0.8350,0.9003
,0.8417,0.9057
,0.8482,0.9108
,0.8545,0.9157
,0.8605,0.9203
,0.8675,0.9256
,0.8741,0.9305
,0.8815,0.9359
,0.8875,0.9402
,0.8951,0.9455
,0.9023,0.9504
,0.9089,0.9549
,0.9167,0.9600
,0.9239,0.9646
,0.9317,0.9694
,0.9388,0.9736
,0.9452,0.9772
,0.9528,0.9814
,0.9609,0.9856
,0.9688,0.9894
,0.9771,0.9930
,0.9845,0.9959
,0.9918,0.9983
,1.0000,1.0000
Reader   5 Treatment   2
,FPF,TPF,OBS,THEOR
,1.0000,,1.0000
,0.2500,,0.3585
,0.2308,,0.3491
,0.2115,,0.2830
,0.0577,,0.2358
,0.0000,,0.0849
,1.0000,,,1.0000
,0.2111,,,0.3836
,0.1990,,,0.3708
,0.1528,,,0.3193
,0.0841,,,0.2288
,0.0112,,,0.0771
,0.0000,0.0000
,0.0001,0.0075
,0.0005,0.0155
,0.0011,0.0232
,0.0021,0.0319
,0.0031,0.0392
,0.0044,0.0475
,0.0059,0.0549
,0.0076,0.0629
,0.0094,0.0705
,0.0116,0.0785
,0.0137,0.0858
,0.0160,0.0934
,0.0187,0.1013
,0.0211,0.1082
,0.0243,0.1167
,0.0272,0.1240
,0.0304,0.1315
,0.0331,0.1376
,0.0367,0.1455
,0.0401,0.1527
,0.0437,0.1601
,0.0471,0.1667
,0.0512,0.1743
,0.0549,0.1811
,0.0588,0.1880
,0.0629,0.1950
,0.0671,0.2021
,0.0715,0.2092
,0.0754,0.2155
,0.0801,0.2228
,0.0837,0.2282
,0.0886,0.2356
,0.0931,0.2420
,0.0970,0.2476
,0.1023,0.2551
,0.1064,0.2607
,0.1113,0.2673
,0.1155,0.2729
,0.1206,0.2795
,0.1250,0.2852
,0.1302,0.2918
,0.1348,0.2975
,0.1394,0.3032
,0.1449,0.3099
,0.1497,0.3156
,0.1545,0.3213
,0.1594,0.3270
,0.1644,0.3327
,0.1694,0.3384
,0.1744,0.3441
,0.1795,0.3498
,0.1847,0.3554
,0.1890,0.3601
,0.1942,0.3658
,0.1995,0.3714
,0.2048,0.3771
,0.2093,0.3818
,0.2147,0.3874
,0.2192,0.3920
,0.2246,0.3976
,0.2292,0.4022
,0.2347,0.4077
,0.2393,0.4123
,0.2449,0.4178
,0.2495,0.4224
,0.2551,0.4279
,0.2598,0.4324
,0.2654,0.4378
,0.2701,0.4423
,0.2748,0.4468
,0.2804,0.4521
,0.2852,0.4565
,0.2899,0.4609
,0.2956,0.4662
,0.3003,0.4706
,0.3051,0.4749
,0.3108,0.4801
,0.3155,0.4844
,0.3203,0.4887
,0.3250,0.4929
,0.3307,0.4980
,0.3355,0.5022
,0.3402,0.5064
,0.3459,0.5114
,0.3506,0.5155
,0.3554,0.5196
,0.3610,0.5246
,0.3657,0.5286
,0.3704,0.5326
,0.3761,0.5375
,0.3807,0.5414
,0.3854,0.5454
,0.3910,0.5501
,0.3956,0.5540
,0.4003,0.5579
,0.4058,0.5625
,0.4104,0.5663
,0.4159,0.5709
,0.4205,0.5747
,0.4260,0.5792
,0.4305,0.5829
,0.4359,0.5873
,0.4404,0.5909
,0.4458,0.5953
,0.4511,0.5996
,0.4556,0.6032
,0.4609,0.6074
,0.4661,0.6117
,0.4705,0.6151
,0.4757,0.6193
,0.4809,0.6234
,0.4861,0.6275
,0.4912,0.6315
,0.4963,0.6355
,0.5013,0.6395
,0.5064,0.6434
,0.5114,0.6473
,0.5163,0.6512
,0.5213,0.6550
,0.5261,0.6588
,0.5310,0.6625
,0.5358,0.6662
,0.5414,0.6705
,0.5462,0.6742
,0.5517,0.6784
,0.5563,0.6819
,0.5618,0.6860
,0.5671,0.6901
,0.5717,0.6936
,0.5777,0.6981
,0.5822,0.7015
,0.5881,0.7059
,0.5924,0.7092
,0.5982,0.7136
,0.6033,0.7173
,0.6089,0.7215
,0.6138,0.7252
,0.6194,0.7293
,0.6242,0.7329
,0.6296,0.7369
,0.6350,0.7408
,0.6403,0.7448
,0.6455,0.7486
,0.6507,0.7524
,0.6564,0.7566
,0.6614,0.7603
,0.6677,0.7648
,0.6725,0.7684
,0.6786,0.7728
,0.6833,0.7763
,0.6892,0.7805
,0.6949,0.7847
,0.7006,0.7888
,0.7062,0.7928
,0.7117,0.7968
,0.7171,0.8007
,0.7234,0.8053
,0.7286,0.8090
,0.7347,0.8134
,0.7407,0.8177
,0.7456,0.8212
,0.7514,0.8253
,0.7579,0.8300
,0.7634,0.8339
,0.7697,0.8384
,0.7750,0.8421
,0.7818,0.8470
,0.7876,0.8511
,0.7941,0.8557
,0.7996,0.8596
,0.8058,0.8640
,0.8117,0.8682
,0.8182,0.8728
,0.8252,0.8777
,0.8306,0.8815
,0.8371,0.8861
,0.8434,0.8905
,0.8506,0.8956
,0.8564,0.8997
,0.8631,0.9044
,0.8694,0.9088
,0.8765,0.9138
,0.8832,0.9185
,0.8905,0.9236
,0.8973,0.9283
,0.9037,0.9328
,0.9112,0.9380
,0.9181,0.9429
,0.9257,0.9482
,0.9327,0.9531
,0.9390,0.9575
,0.9466,0.9628
,0.9541,0.9680
,0.9613,0.9730
,0.9685,0.9781
,0.9764,0.9835
,0.9838,0.9887
,0.9919,0.9943
,0.9995,0.9996
Reader   1 Treatment   3
,FPF,TPF,OBS,THEOR
,1.0000,,1.0000
,0.2115,,0.4717
,0.1731,,0.4434
,0.1154,,0.4057
,0.0769,,0.1038
,1.0000,,,1.0000
,0.2089,,,0.4746
,0.1885,,,0.4374
,0.1610,,,0.3840
,0.0452,,,0.1186
,0.0002,0.0005
,0.0031,0.0083
,0.0061,0.0162
,0.0090,0.0240
,0.0120,0.0319
,0.0146,0.0387
,0.0176,0.0466
,0.0206,0.0545
,0.0236,0.0625
,0.0263,0.0695
,0.0293,0.0775
,0.0316,0.0835
,0.0348,0.0917
,0.0379,0.0998
,0.0403,0.1060
,0.0435,0.1143
,0.0460,0.1206
,0.0493,0.1290
,0.0518,0.1354
,0.0547,0.1429
,0.0573,0.1493
,0.0603,0.1569
,0.0634,0.1646
,0.0661,0.1713
,0.0688,0.1779
,0.0720,0.1858
,0.0748,0.1926
,0.0776,0.1995
,0.0805,0.2064
,0.0834,0.2133
,0.0863,0.2203
,0.0893,0.2274
,0.0923,0.2345
,0.0954,0.2417
,0.0980,0.2477
,0.1011,0.2549
,0.1043,0.2622
,0.1070,0.2683
,0.1102,0.2757
,0.1130,0.2819
,0.1163,0.2894
,0.1191,0.2957
,0.1220,0.3019
,0.1254,0.3095
,0.1284,0.3159
,0.1313,0.3223
,0.1343,0.3287
,0.1373,0.3351
,0.1404,0.3415
,0.1441,0.3493
,0.1472,0.3558
,0.1503,0.3623
,0.1535,0.3688
,0.1567,0.3754
,0.1600,0.3819
,0.1633,0.3885
,0.1666,0.3951
,0.1696,0.4011
,0.1730,0.4077
,0.1764,0.4143
,0.1798,0.4209
,0.1833,0.4275
,0.1861,0.4328
,0.1896,0.4395
,0.1932,0.4461
,0.1968,0.4528
,0.2004,0.4594
,0.2037,0.4654
,0.2074,0.4720
,0.2111,0.4786
,0.2141,0.4839
,0.2179,0.4905
,0.2217,0.4971
,0.2255,0.5037
,0.2294,0.5103
,0.2325,0.5155
,0.2364,0.5221
,0.2404,0.5286
,0.2443,0.5351
,0.2483,0.5416
,0.2515,0.5467
,0.2556,0.5532
,0.2597,0.5596
,0.2637,0.5660
,0.2679,0.5724
,0.2720,0.5787
,0.2754,0.5838
,0.2795,0.5900
,0.2838,0.5963
,0.2880,0.6025
,0.2923,0.6087
,0.2966,0.6148
,0.3009,0.6209
,0.3052,0.6270
,0.3095,0.6330
,0.3139,0.6390
,0.3183,0.6450
,0.3227,0.6509
,0.3271,0.6567
,0.3316,0.6625
,0.3360,0.6683
,0.3414,0.6752
,0.3459,0.6808
,0.3504,0.6864
,0.3550,0.6920
,0.3604,0.6986
,0.3650,0.7040
,0.3695,0.7094
,0.3751,0.7158
,0.3797,0.7211
,0.3852,0.7273
,0.3898,0.7325
,0.3954,0.7386
,0.4000,0.7436
,0.4056,0.7496
,0.4102,0.7545
,0.4158,0.7603
,0.4215,0.7660
,0.4271,0.7717
,0.4318,0.7763
,0.4374,0.7818
,0.4430,0.7872
,0.4486,0.7925
,0.4543,0.7977
,0.4599,0.8028
,0.4655,0.8079
,0.4712,0.8128
,0.4777,0.8185
,0.4834,0.8233
,0.4890,0.8279
,0.4955,0.8333
,0.5011,0.8378
,0.5077,0.8429
,0.5132,0.8472
,0.5197,0.8521
,0.5262,0.8569
,0.5327,0.8616
,0.5382,0.8656
,0.5456,0.8707
,0.5511,0.8744
,0.5584,0.8793
,0.5647,0.8834
,0.5719,0.8880
,0.5773,0.8913
,0.5845,0.8957
,0.5916,0.8999
,0.5987,0.9040
,0.6057,0.9079
,0.6118,0.9113
,0.6187,0.9150
,0.6256,0.9185
,0.6324,0.9220
,0.6392,0.9253
,0.6476,0.9294
,0.6543,0.9324
,0.6608,0.9354
,0.6690,0.9390
,0.6754,0.9417
,0.6834,0.9450
,0.6897,0.9475
,0.6975,0.9505
,0.7051,0.9533
,0.7127,0.9561
,0.7202,0.9586
,0.7275,0.9611
,0.7347,0.9634
,0.7432,0.9660
,0.7502,0.9681
,0.7584,0.9704
,0.7651,0.9723
,0.7730,0.9743
,0.7807,0.9763
,0.7883,0.9781
,0.7956,0.9798
,0.8040,0.9816
,0.8110,0.9830
,0.8200,0.9848
,0.8266,0.9860
,0.8351,0.9875
,0.8433,0.9888
,0.8512,0.9900
,0.8588,0.9911
,0.8661,0.9921
,0.8740,0.9931
,0.8823,0.9940
,0.8902,0.9949
,0.8976,0.9956
,0.9060,0.9963
,0.9139,0.9970
,0.9212,0.9975
,0.9291,0.9980
,0.9373,0.9985
,0.9447,0.9988
,0.9528,0.9992
,0.9613,0.9994
,0.9683,0.9996
,0.9760,0.9998
,0.9844,0.9999
,0.9915,1.0000
,1.0000,1.0000
Reader   2 Treatment   3
,FPF,TPF,OBS,THEOR
,1.0000,,1.0000
,0.0577,,0.3208
,0.0000,,0.1981
,1.0000,,,1.0000
,0.0496,,,0.3287
,0.0091,,,0.1942
,0.0000,0.0000
,0.0000,0.0075
,0.0000,0.0155
,0.0000,0.0232
,0.0000,0.0319
,0.0000,0.0392
,0.0001,0.0475
,0.0001,0.0549
,0.0002,0.0629
,0.0003,0.0716
,0.0004,0.0785
,0.0006,0.0870
,0.0008,0.0947
,0.0010,0.1027
,0.0014,0.1110
,0.0017,0.1182
,0.0022,0.1270
,0.0026,0.1346
,0.0032,0.1424
,0.0038,0.1504
,0.0046,0.1585
,0.0055,0.1668
,0.0063,0.1744
,0.0074,0.1829
,0.0084,0.1899
,0.0098,0.1987
,0.0110,0.2058
,0.0123,0.2129
,0.0141,0.2220
,0.0157,0.2293
,0.0174,0.2367
,0.0192,0.2441
,0.0214,0.2525
,0.0236,0.2600
,0.0258,0.2675
,0.0282,0.2750
,0.0308,0.2826
,0.0335,0.2902
,0.0364,0.2978
,0.0394,0.3054
,0.0426,0.3130
,0.0459,0.3206
,0.0490,0.3273
,0.0526,0.3349
,0.0559,0.3416
,0.0599,0.3492
,0.0634,0.3558
,0.0677,0.3634
,0.0715,0.3700
,0.0755,0.3765
,0.0796,0.3831
,0.0844,0.3906
,0.0881,0.3962
,0.0932,0.4036
,0.0977,0.4100
,0.1024,0.4165
,0.1072,0.4229
,0.1114,0.4283
,0.1171,0.4356
,0.1214,0.4410
,0.1266,0.4472
,0.1319,0.4535
,0.1372,0.4597
,0.1419,0.4650
,0.1474,0.4711
,0.1530,0.4772
,0.1587,0.4832
,0.1637,0.4883
,0.1695,0.4943
,0.1746,0.4994
,0.1805,0.5053
,0.1857,0.5103
,0.1918,0.5161
,0.1970,0.5210
,0.2032,0.5267
,0.2086,0.5316
,0.2149,0.5372
,0.2203,0.5420
,0.2267,0.5475
,0.2322,0.5522
,0.2377,0.5569
,0.2442,0.5623
,0.2497,0.5669
,0.2553,0.5714
,0.2619,0.5767
,0.2675,0.5812
,0.2732,0.5856
,0.2798,0.5908
,0.2854,0.5951
,0.2911,0.5994
,0.2978,0.6044
,0.3035,0.6087
,0.3092,0.6129
,0.3158,0.6177
,0.3215,0.6219
,0.3272,0.6260
,0.3339,0.6307
,0.3396,0.6347
,0.3453,0.6387
,0.3519,0.6433
,0.3576,0.6472
,0.3632,0.6510
,0.3698,0.6555
,0.3755,0.6593
,0.3820,0.6636
,0.3876,0.6673
,0.3942,0.6716
,0.3997,0.6752
,0.4062,0.6794
,0.4117,0.6830
,0.4182,0.6871
,0.4245,0.6911
,0.4300,0.6946
,0.4363,0.6986
,0.4426,0.7025
,0.4480,0.7058
,0.4551,0.7102
,0.4604,0.7134
,0.4666,0.7172
,0.4727,0.7209
,0.4788,0.7245
,0.4848,0.7282
,0.4908,0.7317
,0.4976,0.7358
,0.5026,0.7387
,0.5093,0.7427
,0.5151,0.7461
,0.5217,0.7499
,0.5274,0.7532
,0.5339,0.7570
,0.5395,0.7602
,0.5459,0.7638
,0.5522,0.7674
,0.5584,0.7709
,0.5638,0.7740
,0.5699,0.7774
,0.5759,0.7808
,0.5819,0.7841
,0.5878,0.7874
,0.5951,0.7915
,0.6009,0.7947
,0.6066,0.7978
,0.6129,0.8013
,0.6192,0.8047
,0.6254,0.8081
,0.6321,0.8118
,0.6375,0.8146
,0.6441,0.8182
,0.6505,0.8217
,0.6569,0.8251
,0.6632,0.8285
,0.6694,0.8318
,0.6755,0.8350
,0.6815,0.8382
,0.6874,0.8413
,0.6943,0.8450
,0.7011,0.8486
,0.7067,0.8515
,0.7133,0.8549
,0.7197,0.8583
,0.7260,0.8616
,0.7322,0.8648
,0.7392,0.8685
,0.7451,0.8715
,0.7519,0.8750
,0.7584,0.8784
,0.7648,0.8817
,0.7720,0.8854
,0.7780,0.8885
,0.7848,0.8919
,0.7914,0.8953
,0.7977,0.8985
,0.8047,0.9021
,0.8114,0.9055
,0.8187,0.9092
,0.8256,0.9127
,0.8324,0.9161
,0.8388,0.9194
,0.8463,0.9232
,0.8522,0.9261
,0.8591,0.9296
,0.8667,0.9334
,0.8729,0.9366
,0.8808,0.9405
,0.8882,0.9442
,0.8951,0.9477
,0.9016,0.9510
,0.9093,0.9548
,0.9163,0.9583
,0.9242,0.9622
,0.9313,0.9658
,0.9388,0.9695
,0.9464,0.9733
,0.9531,0.9767
,0.9619,0.9810
,0.9690,0.9846
,0.9768,0.9884
,0.9840,0.9921
,0.9920,0.9960
,0.9995,0.9998
Reader   3 Treatment   3
,FPF,TPF,OBS,THEOR
,1.0000,,1.0000
,0.2885,,0.5849
,0.2308,,0.5472
,0.1538,,0.4906
,0.0962,,0.2642
,1.0000,,,1.0000
,0.2834,,,0.5894
,0.2453,,,0.5419
,0.1946,,,0.4708
,0.0832,,,0.2690
,0.0000,0.0000
,0.0010,0.0083
,0.0022,0.0162
,0.0034,0.0234
,0.0049,0.0312
,0.0064,0.0388
,0.0080,0.0466
,0.0097,0.0541
,0.0117,0.0626
,0.0136,0.0704
,0.0155,0.0779
,0.0173,0.0851
,0.0194,0.0927
,0.0216,0.1008
,0.0238,0.1083
,0.0261,0.1161
,0.0282,0.1231
,0.0305,0.1304
,0.0328,0.1379
,0.0354,0.1457
,0.0381,0.1538
,0.0404,0.1607
,0.0429,0.1679
,0.0455,0.1752
,0.0482,0.1826
,0.0510,0.1903
,0.0533,0.1965
,0.0564,0.2045
,0.0589,0.2110
,0.0621,0.2192
,0.0648,0.2260
,0.0676,0.2328
,0.0705,0.2397
,0.0735,0.2468
,0.0765,0.2539
,0.0797,0.2611
,0.0829,0.2684
,0.0858,0.2749
,0.0892,0.2823
,0.0918,0.2880
,0.0954,0.2956
,0.0986,0.3023
,0.1019,0.3091
,0.1052,0.3159
,0.1086,0.3228
,0.1121,0.3297
,0.1152,0.3357
,0.1188,0.3427
,0.1225,0.3497
,0.1257,0.3558
,0.1296,0.3629
,0.1329,0.3690
,0.1363,0.3752
,0.1403,0.3824
,0.1439,0.3886
,0.1474,0.3949
,0.1511,0.4011
,0.1554,0.4084
,0.1591,0.4147
,0.1629,0.4210
,0.1667,0.4273
,0.1706,0.4336
,0.1746,0.4399
,0.1786,0.4462
,0.1826,0.4525
,0.1867,0.4589
,0.1902,0.4642
,0.1944,0.4705
,0.1986,0.4768
,0.2029,0.4831
,0.2073,0.4895
,0.2109,0.4947
,0.2153,0.5010
,0.2198,0.5073
,0.2243,0.5136
,0.2281,0.5188
,0.2327,0.5251
,0.2374,0.5314
,0.2413,0.5366
,0.2460,0.5428
,0.2500,0.5479
,0.2548,0.5541
,0.2597,0.5603
,0.2637,0.5654
,0.2686,0.5715
,0.2728,0.5766
,0.2778,0.5826
,0.2828,0.5887
,0.2870,0.5937
,0.2921,0.5997
,0.2964,0.6046
,0.3015,0.6105
,0.3067,0.6164
,0.3110,0.6213
,0.3163,0.6271
,0.3207,0.6319
,0.3260,0.6377
,0.3313,0.6434
,0.3357,0.6481
,0.3411,0.6538
,0.3465,0.6594
,0.3510,0.6640
,0.3564,0.6695
,0.3619,0.6750
,0.3665,0.6795
,0.3720,0.6849
,0.3775,0.6902
,0.3830,0.6955
,0.3876,0.6999
,0.3932,0.7051
,0.3987,0.7103
,0.4043,0.7154
,0.4099,0.7204
,0.4155,0.7254
,0.4211,0.7304
,0.4258,0.7345
,0.4314,0.7393
,0.4371,0.7441
,0.4427,0.7489
,0.4483,0.7536
,0.4540,0.7582
,0.4596,0.7628
,0.4662,0.7681
,0.4719,0.7725
,0.4775,0.7769
,0.4831,0.7813
,0.4888,0.7856
,0.4953,0.7905
,0.5009,0.7947
,0.5075,0.7995
,0.5131,0.8036
,0.5187,0.8076
,0.5252,0.8122
,0.5316,0.8167
,0.5372,0.8205
,0.5436,0.8249
,0.5501,0.8292
,0.5565,0.8334
,0.5619,0.8370
,0.5692,0.8417
,0.5746,0.8451
,0.5818,0.8496
,0.5880,0.8535
,0.5943,0.8572
,0.6013,0.8615
,0.6066,0.8646
,0.6136,0.8687
,0.6205,0.8726
,0.6274,0.8765
,0.6334,0.8799
,0.6402,0.8836
,0.6469,0.8872
,0.6536,0.8907
,0.6602,0.8942
,0.6667,0.8975
,0.6732,0.9008
,0.6812,0.9048
,0.6876,0.9079
,0.6938,0.9109
,0.7016,0.9146
,0.7077,0.9174
,0.7152,0.9208
,0.7227,0.9242
,0.7285,0.9267
,0.7358,0.9299
,0.7429,0.9329
,0.7499,0.9358
,0.7581,0.9391
,0.7648,0.9418
,0.7728,0.9448
,0.7792,0.9473
,0.7868,0.9501
,0.7942,0.9528
,0.8015,0.9554
,0.8085,0.9578
,0.8154,0.9602
,0.8233,0.9627
,0.8308,0.9652
,0.8382,0.9675
,0.8463,0.9699
,0.8531,0.9719
,0.8607,0.9741
,0.8679,0.9761
,0.8757,0.9782
,0.8840,0.9803
,0.8903,0.9819
,0.8992,0.9841
,0.9062,0.9857
,0.9140,0.9874
,0.9214,0.9889
,0.9293,0.9905
,0.9375,0.9921
,0.9448,0.9934
,0.9530,0.9947
,0.9614,0.9960
,0.9685,0.9970
,0.9762,0.9980
,0.9846,0.9989
,0.9916,0.9995
,1.0000,1.0000
Reader   4 Treatment   3
,FPF,TPF,OBS,THEOR
,1.0000,,1.0000
,0.3269,,0.5566
,0.0577,,0.2736
,1.0000,,,1.0000
,0.3204,,,0.5608
,0.0608,,,0.2724
,0.0000,0.0000
,0.0000,0.0075
,0.0000,0.0155
,0.0001,0.0232
,0.0002,0.0319
,0.0004,0.0392
,0.0007,0.0475
,0.0010,0.0549
,0.0015,0.0629
,0.0021,0.0716
,0.0026,0.0785
,0.0035,0.0870
,0.0043,0.0947
,0.0053,0.1027
,0.0065,0.1110
,0.0076,0.1182
,0.0089,0.1255
,0.0103,0.1331
,0.0119,0.1408
,0.0136,0.1487
,0.0156,0.1568
,0.0177,0.1651
,0.0196,0.1718
,0.0221,0.1803
,0.0242,0.1872
,0.0266,0.1942
,0.0293,0.2022
,0.0320,0.2093
,0.0347,0.2165
,0.0377,0.2238
,0.0408,0.2311
,0.0440,0.2385
,0.0474,0.2459
,0.0510,0.2533
,0.0542,0.2599
,0.0581,0.2674
,0.0616,0.2740
,0.0658,0.2816
,0.0690,0.2872
,0.0735,0.2948
,0.0775,0.3015
,0.0817,0.3081
,0.0859,0.3148
,0.0903,0.3215
,0.0941,0.3272
,0.0994,0.3348
,0.1034,0.3405
,0.1082,0.3471
,0.1124,0.3528
,0.1174,0.3594
,0.1218,0.3651
,0.1270,0.3717
,0.1315,0.3773
,0.1368,0.3839
,0.1415,0.3895
,0.1462,0.3950
,0.1518,0.4015
,0.1567,0.4071
,0.1616,0.4126
,0.1665,0.4181
,0.1724,0.4245
,0.1775,0.4299
,0.1826,0.4354
,0.1878,0.4408
,0.1930,0.4461
,0.1983,0.4515
,0.2036,0.4568
,0.2090,0.4621
,0.2144,0.4674
,0.2198,0.4726
,0.2252,0.4778
,0.2307,0.4830
,0.2362,0.4881
,0.2418,0.4932
,0.2473,0.4983
,0.2520,0.5025
,0.2576,0.5075
,0.2632,0.5125
,0.2688,0.5175
,0.2745,0.5224
,0.2801,0.5273
,0.2849,0.5313
,0.2905,0.5361
,0.2962,0.5409
,0.3019,0.5457
,0.3076,0.5504
,0.3124,0.5543
,0.3181,0.5589
,0.3238,0.5636
,0.3295,0.5681
,0.3352,0.5727
,0.3399,0.5764
,0.3456,0.5809
,0.3513,0.5854
,0.3570,0.5898
,0.3626,0.5941
,0.3683,0.5985
,0.3739,0.6028
,0.3786,0.6063
,0.3842,0.6105
,0.3898,0.6147
,0.3954,0.6189
,0.4010,0.6230
,0.4065,0.6271
,0.4120,0.6311
,0.4175,0.6351
,0.4230,0.6391
,0.4284,0.6430
,0.4339,0.6469
,0.4393,0.6508
,0.4456,0.6552
,0.4509,0.6590
,0.4562,0.6628
,0.4615,0.6665
,0.4677,0.6708
,0.4729,0.6744
,0.4790,0.6786
,0.4842,0.6822
,0.4902,0.6863
,0.4953,0.6898
,0.5012,0.6938
,0.5062,0.6972
,0.5120,0.7011
,0.5178,0.7050
,0.5236,0.7089
,0.5284,0.7121
,0.5349,0.7164
,0.5397,0.7196
,0.5460,0.7238
,0.5515,0.7274
,0.5570,0.7310
,0.5632,0.7351
,0.5685,0.7386
,0.5746,0.7425
,0.5798,0.7459
,0.5858,0.7497
,0.5916,0.7535
,0.5974,0.7572
,0.6025,0.7605
,0.6081,0.7641
,0.6138,0.7677
,0.6193,0.7712
,0.6262,0.7755
,0.6316,0.7790
,0.6369,0.7823
,0.6435,0.7865
,0.6487,0.7897
,0.6551,0.7937
,0.6602,0.7969
,0.6664,0.8008
,0.6725,0.8046
,0.6786,0.8083
,0.6845,0.8120
,0.6903,0.8156
,0.6961,0.8191
,0.7017,0.8226
,0.7084,0.8267
,0.7138,0.8300
,0.7203,0.8340
,0.7265,0.8378
,0.7327,0.8416
,0.7387,0.8452
,0.7446,0.8488
,0.7504,0.8523
,0.7570,0.8563
,0.7635,0.8602
,0.7698,0.8640
,0.7759,0.8677
,0.7827,0.8718
,0.7893,0.8757
,0.7958,0.8796
,0.8020,0.8833
,0.8081,0.8869
,0.8140,0.8905
,0.8211,0.8947
,0.8280,0.8988
,0.8346,0.9027
,0.8410,0.9065
,0.8483,0.9109
,0.8542,0.9143
,0.8610,0.9183
,0.8674,0.9222
,0.8746,0.9264
,0.8824,0.9310
,0.8888,0.9348
,0.8957,0.9388
,0.9030,0.9431
,0.9105,0.9476
,0.9175,0.9516
,0.9239,0.9554
,0.9310,0.9596
,0.9396,0.9646
,0.9462,0.9685
,0.9546,0.9734
,0.9617,0.9776
,0.9689,0.9818
,0.9767,0.9863
,0.9840,0.9906
,0.9920,0.9953
,0.9995,0.9997
Reader   5 Treatment   3
,FPF,TPF,OBS,THEOR
,1.0000,,1.0000
,0.0962,,0.3774
,0.0385,,0.1887
,1.0000,,,1.0000
,0.0962,,,0.3774
,0.0385,,,0.1887
,0.0001,0.0005
,0.0013,0.0083
,0.0025,0.0156
,0.0038,0.0234
,0.0051,0.0311
,0.0065,0.0391
,0.0079,0.0470
,0.0092,0.0545
,0.0108,0.0629
,0.0122,0.0701
,0.0137,0.0780
,0.0152,0.0854
,0.0167,0.0933
,0.0182,0.1004
,0.0200,0.1092
,0.0217,0.1171
,0.0232,0.1240
,0.0248,0.1311
,0.0265,0.1385
,0.0282,0.1462
,0.0301,0.1541
,0.0320,0.1623
,0.0336,0.1690
,0.0357,0.1776
,0.0375,0.1847
,0.0393,0.1920
,0.0412,0.1994
,0.0431,0.2069
,0.0452,0.2146
,0.0473,0.2225
,0.0492,0.2295
,0.0514,0.2376
,0.0531,0.2438
,0.0555,0.2521
,0.0574,0.2585
,0.0599,0.2671
,0.0618,0.2736
,0.0641,0.2813
,0.0665,0.2891
,0.0686,0.2958
,0.0711,0.3038
,0.0733,0.3107
,0.0755,0.3176
,0.0782,0.3258
,0.0805,0.3328
,0.0829,0.3399
,0.0854,0.3470
,0.0879,0.3542
,0.0904,0.3615
,0.0930,0.3687
,0.0957,0.3760
,0.0984,0.3834
,0.1011,0.3907
,0.1039,0.3981
,0.1068,0.4055
,0.1097,0.4130
,0.1126,0.4205
,0.1156,0.4279
,0.1182,0.4342
,0.1213,0.4417
,0.1244,0.4492
,0.1271,0.4555
,0.1304,0.4630
,0.1337,0.4706
,0.1370,0.4781
,0.1398,0.4844
,0.1433,0.4919
,0.1468,0.4994
,0.1498,0.5057
,0.1534,0.5132
,0.1570,0.5206
,0.1601,0.5268
,0.1638,0.5343
,0.1676,0.5417
,0.1708,0.5479
,0.1747,0.5552
,0.1786,0.5626
,0.1819,0.5687
,0.1860,0.5760
,0.1900,0.5832
,0.1935,0.5892
,0.1976,0.5964
,0.2018,0.6035
,0.2061,0.6106
,0.2104,0.6176
,0.2140,0.6235
,0.2184,0.6304
,0.2228,0.6373
,0.2273,0.6442
,0.2318,0.6509
,0.2364,0.6577
,0.2410,0.6643
,0.2457,0.6709
,0.2503,0.6775
,0.2551,0.6840
,0.2598,0.6904
,0.2646,0.6967
,0.2695,0.7030
,0.2744,0.7092
,0.2793,0.7154
,0.2842,0.7214
,0.2892,0.7274
,0.2942,0.7333
,0.3001,0.7402
,0.3052,0.7459
,0.3103,0.7516
,0.3163,0.7581
,0.3215,0.7637
,0.3267,0.7691
,0.3328,0.7753
,0.3390,0.7815
,0.3442,0.7867
,0.3504,0.7926
,0.3558,0.7976
,0.3620,0.8033
,0.3683,0.8090
,0.3746,0.8145
,0.3800,0.8191
,0.3873,0.8252
,0.3928,0.8297
,0.3991,0.8348
,0.4055,0.8397
,0.4129,0.8453
,0.4184,0.8494
,0.4257,0.8547
,0.4322,0.8593
,0.4386,0.8637
,0.4460,0.8687
,0.4525,0.8729
,0.4589,0.8770
,0.4663,0.8816
,0.4737,0.8860
,0.4802,0.8898
,0.4876,0.8940
,0.4949,0.8981
,0.5013,0.9016
,0.5087,0.9055
,0.5160,0.9092
,0.5233,0.9128
,0.5306,0.9163
,0.5378,0.9197
,0.5451,0.9230
,0.5523,0.9262
,0.5594,0.9292
,0.5684,0.9329
,0.5754,0.9357
,0.5825,0.9385
,0.5904,0.9414
,0.5973,0.9440
,0.6060,0.9470
,0.6129,0.9493
,0.6214,0.9521
,0.6281,0.9542
,0.6365,0.9568
,0.6448,0.9592
,0.6513,0.9611
,0.6594,0.9633
,0.6675,0.9654
,0.6754,0.9674
,0.6832,0.9694
,0.6910,0.9712
,0.6986,0.9729
,0.7076,0.9748
,0.7150,0.9763
,0.7223,0.9778
,0.7309,0.9794
,0.7380,0.9807
,0.7463,0.9821
,0.7544,0.9835
,0.7624,0.9847
,0.7702,0.9859
,0.7779,0.9870
,0.7866,0.9881
,0.7939,0.9891
,0.8022,0.9901
,0.8102,0.9910
,0.8180,0.9918
,0.8256,0.9926
,0.8340,0.9934
,0.8421,0.9941
,0.8499,0.9947
,0.8574,0.9953
,0.8655,0.9959
,0.8741,0.9965
,0.8807,0.9969
,0.8900,0.9974
,0.8974,0.9977
,0.9057,0.9981
,0.9134,0.9984
,0.9206,0.9987
,0.9295,0.9990
,0.9375,0.9992
,0.9447,0.9994
,0.9527,0.9996
,0.9610,0.9997
,0.9680,0.9998
,0.9756,0.9999
,0.9840,1.0000
,0.9924,1.0000
,1.0000,1.0000
Reader   1 Treatment   4
,FPF,TPF,OBS,THEOR
,1.0000,,1.0000
,0.2692,,0.4811
,0.2115,,0.4340
,0.1154,,0.3679
,0.0385,,0.0849
,1.0000,,,1.0000
,0.2624,,,0.4861
,0.2186,,,0.4321
,0.1572,,,0.3474
,0.0240,,,0.0915
,0.0000,0.0001
,0.0010,0.0082
,0.0025,0.0162
,0.0039,0.0234
,0.0058,0.0313
,0.0078,0.0394
,0.0098,0.0470
,0.0119,0.0544
,0.0144,0.0627
,0.0169,0.0706
,0.0192,0.0776
,0.0217,0.0851
,0.0246,0.0931
,0.0270,0.0999
,0.0297,0.1070
,0.0325,0.1144
,0.0356,0.1222
,0.0388,0.1303
,0.0414,0.1365
,0.0447,0.1441
,0.0480,0.1519
,0.0511,0.1588
,0.0543,0.1658
,0.0576,0.1731
,0.0611,0.1805
,0.0642,0.1868
,0.0679,0.1945
,0.0712,0.2011
,0.0746,0.2078
,0.0781,0.2146
,0.0817,0.2215
,0.0854,0.2285
,0.0892,0.2356
,0.0924,0.2414
,0.0964,0.2487
,0.0997,0.2546
,0.1040,0.2621
,0.1075,0.2681
,0.1110,0.2742
,0.1156,0.2819
,0.1194,0.2882
,0.1232,0.2944
,0.1271,0.3008
,0.1310,0.3071
,0.1351,0.3136
,0.1392,0.3200
,0.1429,0.3257
,0.1471,0.3323
,0.1509,0.3380
,0.1554,0.3447
,0.1593,0.3505
,0.1633,0.3563
,0.1673,0.3622
,0.1720,0.3689
,0.1755,0.3740
,0.1803,0.3808
,0.1840,0.3859
,0.1883,0.3918
,0.1927,0.3978
,0.1971,0.4038
,0.2009,0.4089
,0.2054,0.4150
,0.2100,0.4210
,0.2140,0.4262
,0.2186,0.4322
,0.2227,0.4374
,0.2274,0.4434
,0.2316,0.4486
,0.2364,0.4547
,0.2406,0.4599
,0.2448,0.4650
,0.2498,0.4711
,0.2541,0.4763
,0.2584,0.4815
,0.2628,0.4866
,0.2679,0.4927
,0.2723,0.4978
,0.2768,0.5030
,0.2813,0.5081
,0.2858,0.5133
,0.2903,0.5184
,0.2949,0.5235
,0.3003,0.5295
,0.3049,0.5346
,0.3095,0.5396
,0.3142,0.5447
,0.3189,0.5497
,0.3236,0.5548
,0.3284,0.5598
,0.3331,0.5648
,0.3379,0.5698
,0.3427,0.5748
,0.3475,0.5797
,0.3524,0.5846
,0.3572,0.5895
,0.3621,0.5944
,0.3670,0.5993
,0.3719,0.6041
,0.3768,0.6089
,0.3817,0.6137
,0.3866,0.6185
,0.3916,0.6232
,0.3965,0.6280
,0.4015,0.6327
,0.4065,0.6373
,0.4115,0.6420
,0.4164,0.6466
,0.4214,0.6512
,0.4264,0.6557
,0.4314,0.6602
,0.4365,0.6647
,0.4423,0.6699
,0.4473,0.6744
,0.4523,0.6788
,0.4574,0.6831
,0.4624,0.6875
,0.4682,0.6925
,0.4732,0.6968
,0.4782,0.7010
,0.4841,0.7059
,0.4891,0.7101
,0.4941,0.7142
,0.4999,0.7190
,0.5049,0.7230
,0.5107,0.7277
,0.5156,0.7317
,0.5214,0.7363
,0.5272,0.7408
,0.5321,0.7447
,0.5378,0.7492
,0.5435,0.7536
,0.5492,0.7579
,0.5549,0.7622
,0.5598,0.7659
,0.5662,0.7707
,0.5710,0.7743
,0.5774,0.7790
,0.5830,0.7830
,0.5885,0.7870
,0.5948,0.7916
,0.6003,0.7955
,0.6065,0.7999
,0.6119,0.8037
,0.6180,0.8079
,0.6241,0.8122
,0.6295,0.8158
,0.6355,0.8199
,0.6415,0.8239
,0.6474,0.8278
,0.6533,0.8317
,0.6591,0.8356
,0.6656,0.8398
,0.6714,0.8435
,0.6785,0.8480
,0.6841,0.8516
,0.6903,0.8555
,0.6965,0.8593
,0.7033,0.8635
,0.7087,0.8668
,0.7153,0.8708
,0.7219,0.8747
,0.7283,0.8785
,0.7347,0.8822
,0.7410,0.8859
,0.7472,0.8894
,0.7545,0.8936
,0.7605,0.8969
,0.7675,0.9008
,0.7744,0.9046
,0.7812,0.9083
,0.7878,0.9118
,0.7943,0.9153
,0.8007,0.9186
,0.8079,0.9224
,0.8150,0.9260
,0.8219,0.9294
,0.8286,0.9328
,0.8360,0.9364
,0.8432,0.9399
,0.8501,0.9432
,0.8568,0.9464
,0.8641,0.9497
,0.8718,0.9532
,0.8792,0.9566
,0.8863,0.9597
,0.8930,0.9626
,0.9007,0.9658
,0.9079,0.9688
,0.9157,0.9720
,0.9230,0.9749
,0.9307,0.9779
,0.9378,0.9805
,0.9457,0.9834
,0.9527,0.9860
,0.9613,0.9889
,0.9693,0.9915
,0.9759,0.9936
,0.9844,0.9961
,0.9929,0.9984
,1.0000,1.0000
Reader   2 Treatment   4
,FPF,TPF,OBS,THEOR
,1.0000,,1.0000
,0.0962,,0.3396
,0.0192,,0.1981
,1.0000,,,1.0000
,0.0928,,,0.3423
,0.0224,,,0.1968
,0.0000,0.0000
,0.0000,0.0075
,0.0000,0.0155
,0.0001,0.0232
,0.0001,0.0319
,0.0003,0.0392
,0.0005,0.0475
,0.0007,0.0549
,0.0010,0.0629
,0.0014,0.0716
,0.0018,0.0785
,0.0025,0.0870
,0.0031,0.0947
,0.0039,0.1027
,0.0048,0.1110
,0.0057,0.1182
,0.0067,0.1255
,0.0081,0.1346
,0.0094,0.1424
,0.0106,0.1487
,0.0122,0.1568
,0.0140,0.1651
,0.0158,0.1727
,0.0177,0.1803
,0.0196,0.1872
,0.0221,0.1960
,0.0243,0.2031
,0.0266,0.2102
,0.0290,0.2174
,0.0320,0.2256
,0.0348,0.2330
,0.0377,0.2403
,0.0408,0.2478
,0.0441,0.2552
,0.0475,0.2627
,0.0506,0.2693
,0.0543,0.2769
,0.0577,0.2835
,0.0612,0.2901
,0.0653,0.2977
,0.0691,0.3044
,0.0730,0.3110
,0.0770,0.3177
,0.0811,0.3244
,0.0854,0.3310
,0.0897,0.3377
,0.0942,0.3443
,0.0988,0.3510
,0.1028,0.3566
,0.1076,0.3632
,0.1125,0.3698
,0.1168,0.3755
,0.1219,0.3820
,0.1263,0.3876
,0.1315,0.3942
,0.1361,0.3997
,0.1416,0.4062
,0.1463,0.4117
,0.1519,0.4182
,0.1567,0.4236
,0.1617,0.4291
,0.1675,0.4354
,0.1725,0.4408
,0.1776,0.4462
,0.1827,0.4515
,0.1879,0.4569
,0.1940,0.4630
,0.1993,0.4683
,0.2046,0.4735
,0.2100,0.4787
,0.2154,0.4839
,0.2208,0.4890
,0.2262,0.4941
,0.2317,0.4992
,0.2372,0.5043
,0.2428,0.5093
,0.2484,0.5142
,0.2539,0.5192
,0.2595,0.5241
,0.2652,0.5290
,0.2708,0.5338
,0.2765,0.5386
,0.2821,0.5434
,0.2878,0.5481
,0.2925,0.5520
,0.2982,0.5567
,0.3039,0.5613
,0.3096,0.5659
,0.3153,0.5705
,0.3210,0.5750
,0.3267,0.5795
,0.3325,0.5839
,0.3381,0.5884
,0.3438,0.5927
,0.3495,0.5971
,0.3552,0.6014
,0.3609,0.6057
,0.3665,0.6099
,0.3722,0.6141
,0.3778,0.6182
,0.3834,0.6224
,0.3890,0.6264
,0.3946,0.6305
,0.4002,0.6345
,0.4057,0.6385
,0.4112,0.6424
,0.4167,0.6463
,0.4222,0.6502
,0.4277,0.6540
,0.4340,0.6585
,0.4394,0.6622
,0.4448,0.6659
,0.4502,0.6696
,0.4564,0.6739
,0.4617,0.6775
,0.4678,0.6816
,0.4730,0.6852
,0.4791,0.6892
,0.4843,0.6927
,0.4903,0.6967
,0.4962,0.7006
,0.5013,0.7040
,0.5080,0.7084
,0.5130,0.7116
,0.5188,0.7154
,0.5245,0.7191
,0.5302,0.7228
,0.5358,0.7265
,0.5422,0.7306
,0.5470,0.7336
,0.5532,0.7376
,0.5594,0.7416
,0.5648,0.7450
,0.5709,0.7488
,0.5762,0.7521
,0.5822,0.7559
,0.5881,0.7596
,0.5939,0.7632
,0.5997,0.7668
,0.6054,0.7704
,0.6111,0.7738
,0.6167,0.7773
,0.6229,0.7811
,0.6283,0.7844
,0.6350,0.7885
,0.6403,0.7918
,0.6469,0.7958
,0.6520,0.7989
,0.6584,0.8027
,0.6646,0.8065
,0.6696,0.8095
,0.6757,0.8131
,0.6816,0.8167
,0.6887,0.8209
,0.6945,0.8244
,0.7001,0.8277
,0.7068,0.8317
,0.7123,0.8350
,0.7188,0.8388
,0.7251,0.8425
,0.7313,0.8461
,0.7373,0.8497
,0.7433,0.8532
,0.7491,0.8566
,0.7557,0.8605
,0.7622,0.8642
,0.7685,0.8679
,0.7756,0.8720
,0.7815,0.8755
,0.7882,0.8793
,0.7947,0.8831
,0.8009,0.8867
,0.8070,0.8902
,0.8144,0.8945
,0.8201,0.8978
,0.8270,0.9017
,0.8337,0.9056
,0.8401,0.9092
,0.8475,0.9135
,0.8546,0.9175
,0.8613,0.9214
,0.8678,0.9250
,0.8739,0.9285
,0.8817,0.9330
,0.8891,0.9372
,0.8960,0.9411
,0.9024,0.9448
,0.9100,0.9491
,0.9170,0.9531
,0.9248,0.9575
,0.9318,0.9614
,0.9393,0.9657
,0.9468,0.9699
,0.9535,0.9737
,0.9607,0.9778
,0.9693,0.9827
,0.9770,0.9870
,0.9842,0.9911
,0.9921,0.9955
,0.9995,0.9997
Reader   3 Treatment   4
,FPF,TPF,OBS,THEOR
,1.0000,,1.0000
,0.2885,,0.5849
,0.2692,,0.5660
,0.2115,,0.5472
,0.1731,,0.4811
,0.0962,,0.2547
,1.0000,,,1.0000
,0.2843,,,0.5886
,0.2685,,,0.5682
,0.2427,,,0.5333
,0.1990,,,0.4684
,0.0866,,,0.2584
,0.0000,0.0002
,0.0016,0.0081
,0.0034,0.0165
,0.0052,0.0242
,0.0067,0.0308
,0.0087,0.0387
,0.0109,0.0469
,0.0130,0.0549
,0.0151,0.0624
,0.0174,0.0705
,0.0195,0.0776
,0.0218,0.0851
,0.0242,0.0932
,0.0262,0.0996
,0.0287,0.1074
,0.0314,0.1156
,0.0339,0.1229
,0.0365,0.1306
,0.0387,0.1372
,0.0416,0.1454
,0.0441,0.1525
,0.0468,0.1598
,0.0495,0.1672
,0.0518,0.1734
,0.0548,0.1812
,0.0576,0.1884
,0.0601,0.1950
,0.0634,0.2034
,0.0662,0.2102
,0.0690,0.2172
,0.0719,0.2242
,0.0749,0.2314
,0.0780,0.2387
,0.0808,0.2452
,0.0837,0.2517
,0.0870,0.2593
,0.0900,0.2661
,0.0931,0.2729
,0.0962,0.2797
,0.0995,0.2867
,0.1023,0.2927
,0.1056,0.2997
,0.1090,0.3069
,0.1120,0.3130
,0.1156,0.3203
,0.1187,0.3265
,0.1224,0.3339
,0.1256,0.3402
,0.1289,0.3466
,0.1322,0.3530
,0.1356,0.3595
,0.1391,0.3659
,0.1426,0.3724
,0.1461,0.3790
,0.1497,0.3855
,0.1534,0.3921
,0.1571,0.3987
,0.1608,0.4053
,0.1647,0.4119
,0.1685,0.4186
,0.1718,0.4241
,0.1758,0.4308
,0.1798,0.4375
,0.1832,0.4431
,0.1873,0.4498
,0.1907,0.4553
,0.1949,0.4620
,0.1992,0.4688
,0.2027,0.4743
,0.2071,0.4810
,0.2107,0.4866
,0.2152,0.4933
,0.2189,0.4989
,0.2226,0.5044
,0.2272,0.5111
,0.2310,0.5167
,0.2357,0.5233
,0.2395,0.5288
,0.2443,0.5354
,0.2482,0.5409
,0.2522,0.5464
,0.2570,0.5530
,0.2611,0.5584
,0.2660,0.5649
,0.2701,0.5703
,0.2742,0.5757
,0.2792,0.5821
,0.2834,0.5875
,0.2876,0.5928
,0.2927,0.5991
,0.2970,0.6044
,0.3021,0.6107
,0.3065,0.6159
,0.3108,0.6211
,0.3160,0.6272
,0.3204,0.6323
,0.3257,0.6384
,0.3301,0.6435
,0.3355,0.6495
,0.3400,0.6545
,0.3453,0.6604
,0.3499,0.6653
,0.3553,0.6712
,0.3598,0.6760
,0.3653,0.6818
,0.3708,0.6875
,0.3754,0.6922
,0.3809,0.6978
,0.3855,0.7024
,0.3910,0.7079
,0.3966,0.7133
,0.4013,0.7178
,0.4068,0.7232
,0.4124,0.7285
,0.4180,0.7337
,0.4237,0.7389
,0.4293,0.7440
,0.4340,0.7482
,0.4396,0.7532
,0.4452,0.7581
,0.4509,0.7630
,0.4565,0.7678
,0.4622,0.7726
,0.4678,0.7772
,0.4734,0.7819
,0.4800,0.7872
,0.4856,0.7917
,0.4913,0.7961
,0.4969,0.8005
,0.5034,0.8055
,0.5090,0.8097
,0.5156,0.8146
,0.5211,0.8187
,0.5276,0.8234
,0.5332,0.8273
,0.5396,0.8319
,0.5461,0.8363
,0.5525,0.8407
,0.5580,0.8444
,0.5652,0.8492
,0.5707,0.8527
,0.5779,0.8573
,0.5842,0.8613
,0.5904,0.8651
,0.5975,0.8695
,0.6037,0.8732
,0.6107,0.8773
,0.6168,0.8808
,0.6237,0.8847
,0.6305,0.8886
,0.6373,0.8923
,0.6441,0.8960
,0.6508,0.8995
,0.6574,0.9029
,0.6640,0.9063
,0.6705,0.9096
,0.6769,0.9127
,0.6849,0.9166
,0.6912,0.9195
,0.6990,0.9231
,0.7051,0.9259
,0.7127,0.9292
,0.7202,0.9325
,0.7275,0.9356
,0.7333,0.9380
,0.7419,0.9414
,0.7489,0.9442
,0.7558,0.9469
,0.7626,0.9494
,0.7705,0.9523
,0.7770,0.9546
,0.7847,0.9573
,0.7921,0.9598
,0.7994,0.9622
,0.8065,0.9645
,0.8146,0.9670
,0.8214,0.9690
,0.8301,0.9715
,0.8364,0.9733
,0.8446,0.9755
,0.8524,0.9775
,0.8600,0.9794
,0.8673,0.9812
,0.8759,0.9832
,0.8826,0.9846
,0.8905,0.9863
,0.8979,0.9878
,0.9064,0.9894
,0.9142,0.9908
,0.9215,0.9920
,0.9294,0.9933
,0.9376,0.9945
,0.9449,0.9955
,0.9531,0.9965
,0.9602,0.9973
,0.9686,0.9981
,0.9762,0.9988
,0.9846,0.9994
,0.9916,0.9998
,1.0000,1.0000
Reader   4 Treatment   4
,FPF,TPF,OBS,THEOR
,1.0000,,1.0000
,0.3654,,0.4717
,0.3077,,0.4434
,0.0577,,0.2453
,1.0000,,,1.0000
,0.3180,,,0.5004
,0.2778,,,0.4640
,0.0793,,,0.2364
,0.0000,0.0000
,0.0001,0.0075
,0.0003,0.0155
,0.0008,0.0232
,0.0015,0.0319
,0.0022,0.0392
,0.0033,0.0475
,0.0044,0.0549
,0.0059,0.0629
,0.0074,0.0705
,0.0091,0.0785
,0.0109,0.0858
,0.0129,0.0934
,0.0152,0.1013
,0.0177,0.1096
,0.0201,0.1167
,0.0226,0.1240
,0.0254,0.1315
,0.0284,0.1392
,0.0317,0.1471
,0.0344,0.1535
,0.0377,0.1609
,0.0408,0.1675
,0.0449,0.1760
,0.0484,0.1828
,0.0520,0.1898
,0.0558,0.1968
,0.0597,0.2039
,0.0638,0.2110
,0.0675,0.2173
,0.0719,0.2246
,0.0759,0.2310
,0.0800,0.2374
,0.0842,0.2439
,0.0885,0.2504
,0.0930,0.2570
,0.0975,0.2635
,0.1022,0.2701
,0.1063,0.2758
,0.1112,0.2824
,0.1161,0.2890
,0.1205,0.2947
,0.1256,0.3013
,0.1301,0.3070
,0.1347,0.3127
,0.1401,0.3194
,0.1448,0.3251
,0.1496,0.3308
,0.1544,0.3365
,0.1593,0.3422
,0.1642,0.3479
,0.1692,0.3536
,0.1743,0.3592
,0.1794,0.3649
,0.1845,0.3705
,0.1897,0.3762
,0.1941,0.3809
,0.1994,0.3865
,0.2047,0.3921
,0.2100,0.3976
,0.2145,0.4023
,0.2199,0.4078
,0.2254,0.4133
,0.2300,0.4179
,0.2355,0.4234
,0.2401,0.4279
,0.2456,0.4333
,0.2503,0.4378
,0.2559,0.4432
,0.2605,0.4477
,0.2662,0.4530
,0.2709,0.4575
,0.2765,0.4627
,0.2812,0.4671
,0.2860,0.4715
,0.2916,0.4767
,0.2964,0.4810
,0.3021,0.4862
,0.3068,0.4904
,0.3116,0.4947
,0.3173,0.4998
,0.3220,0.5040
,0.3277,0.5090
,0.3325,0.5131
,0.3372,0.5172
,0.3429,0.5222
,0.3476,0.5262
,0.3524,0.5303
,0.3580,0.5351
,0.3628,0.5391
,0.3684,0.5439
,0.3731,0.5478
,0.3787,0.5525
,0.3834,0.5564
,0.3881,0.5603
,0.3937,0.5649
,0.3983,0.5687
,0.4038,0.5732
,0.4094,0.5777
,0.4140,0.5814
,0.4195,0.5859
,0.4240,0.5895
,0.4295,0.5939
,0.4340,0.5975
,0.4394,0.6018
,0.4448,0.6061
,0.4501,0.6103
,0.4546,0.6138
,0.4599,0.6180
,0.4651,0.6221
,0.4704,0.6262
,0.4756,0.6302
,0.4808,0.6342
,0.4859,0.6382
,0.4911,0.6422
,0.4962,0.6461
,0.5012,0.6499
,0.5063,0.6538
,0.5112,0.6576
,0.5162,0.6613
,0.5211,0.6650
,0.5269,0.6693
,0.5317,0.6730
,0.5365,0.6766
,0.5421,0.6808
,0.5469,0.6843
,0.5524,0.6884
,0.5578,0.6925
,0.5632,0.6964
,0.5678,0.6998
,0.5738,0.7043
,0.5783,0.7076
,0.5843,0.7120
,0.5894,0.7157
,0.5945,0.7195
,0.6003,0.7237
,0.6053,0.7273
,0.6110,0.7314
,0.6158,0.7349
,0.6214,0.7389
,0.6268,0.7428
,0.6322,0.7467
,0.6376,0.7505
,0.6428,0.7543
,0.6480,0.7580
,0.6538,0.7622
,0.6589,0.7658
,0.6651,0.7702
,0.6700,0.7737
,0.6761,0.7780
,0.6821,0.7822
,0.6868,0.7855
,0.6926,0.7896
,0.6983,0.7936
,0.7039,0.7976
,0.7094,0.8015
,0.7159,0.8060
,0.7213,0.8097
,0.7275,0.8141
,0.7326,0.8177
,0.7387,0.8219
,0.7446,0.8260
,0.7504,0.8300
,0.7560,0.8339
,0.7625,0.8384
,0.7679,0.8421
,0.7741,0.8464
,0.7809,0.8511
,0.7860,0.8546
,0.7925,0.8591
,0.7988,0.8634
,0.8050,0.8677
,0.8110,0.8718
,0.8175,0.8762
,0.8245,0.8810
,0.8299,0.8847
,0.8365,0.8892
,0.8428,0.8935
,0.8500,0.8985
,0.8558,0.9024
,0.8625,0.9070
,0.8700,0.9120
,0.8760,0.9161
,0.8837,0.9214
,0.8900,0.9257
,0.8969,0.9303
,0.9033,0.9346
,0.9108,0.9397
,0.9177,0.9444
,0.9254,0.9496
,0.9324,0.9544
,0.9387,0.9586
,0.9464,0.9638
,0.9547,0.9694
,0.9618,0.9742
,0.9690,0.9791
,0.9767,0.9843
,0.9840,0.9892
,0.9920,0.9946
,0.9995,0.9997
Reader   5 Treatment   4
,FPF,TPF,OBS,THEOR
,1.0000,,1.0000
,0.1154,,0.3585
,0.0962,,0.3396
,0.0385,,0.1981
,1.0000,,,1.0000
,0.1151,,,0.3588
,0.1018,,,0.3369
,0.0370,,,0.1986
,0.0000,0.0001
,0.0001,0.0082
,0.0004,0.0154
,0.0008,0.0238
,0.0013,0.0316
,0.0020,0.0399
,0.0028,0.0480
,0.0036,0.0556
,0.0045,0.0630
,0.0054,0.0701
,0.0067,0.0787
,0.0080,0.0868
,0.0093,0.0942
,0.0108,0.1020
,0.0121,0.1090
,0.0139,0.1175
,0.0156,0.1250
,0.0174,0.1327
,0.0194,0.1407
,0.0212,0.1475
,0.0235,0.1558
,0.0255,0.1629
,0.0277,0.1702
,0.0300,0.1776
,0.0324,0.1851
,0.0350,0.1927
,0.0376,0.2004
,0.0405,0.2083
,0.0428,0.2146
,0.0459,0.2226
,0.0485,0.2291
,0.0518,0.2372
,0.0546,0.2438
,0.0578,0.2513
,0.0608,0.2579
,0.0638,0.2646
,0.0674,0.2722
,0.0706,0.2790
,0.0740,0.2858
,0.0774,0.2926
,0.0810,0.2995
,0.0846,0.3063
,0.0883,0.3132
,0.0921,0.3201
,0.0960,0.3270
,0.1000,0.3339
,0.1041,0.3408
,0.1077,0.3469
,0.1119,0.3538
,0.1163,0.3606
,0.1201,0.3667
,0.1246,0.3735
,0.1280,0.3787
,0.1326,0.3855
,0.1372,0.3924
,0.1414,0.3983
,0.1456,0.4043
,0.1505,0.4110
,0.1542,0.4161
,0.1592,0.4228
,0.1636,0.4287
,0.1681,0.4345
,0.1732,0.4411
,0.1771,0.4461
,0.1824,0.4527
,0.1864,0.4576
,0.1918,0.4641
,0.1965,0.4697
,0.2013,0.4754
,0.2061,0.4809
,0.2109,0.4865
,0.2158,0.4920
,0.2207,0.4975
,0.2256,0.5029
,0.2305,0.5084
,0.2355,0.5137
,0.2413,0.5198
,0.2456,0.5243
,0.2513,0.5303
,0.2557,0.5348
,0.2615,0.5407
,0.2659,0.5451
,0.2717,0.5509
,0.2769,0.5560
,0.2820,0.5609
,0.2872,0.5659
,0.2923,0.5708
,0.2975,0.5757
,0.3034,0.5812
,0.3079,0.5853
,0.3138,0.5907
,0.3190,0.5953
,0.3242,0.6000
,0.3301,0.6052
,0.3346,0.6091
,0.3405,0.6142
,0.3464,0.6193
,0.3516,0.6237
,0.3567,0.6280
,0.3626,0.6329
,0.3677,0.6372
,0.3736,0.6420
,0.3787,0.6461
,0.3845,0.6508
,0.3904,0.6555
,0.3954,0.6595
,0.4012,0.6640
,0.4069,0.6685
,0.4127,0.6729
,0.4184,0.6772
,0.4233,0.6810
,0.4290,0.6852
,0.4346,0.6894
,0.4402,0.6935
,0.4457,0.6976
,0.4513,0.7016
,0.4574,0.7061
,0.4629,0.7100
,0.4690,0.7143
,0.4744,0.7181
,0.4804,0.7223
,0.4857,0.7260
,0.4922,0.7305
,0.4975,0.7340
,0.5039,0.7384
,0.5090,0.7419
,0.5154,0.7461
,0.5217,0.7503
,0.5267,0.7536
,0.5328,0.7576
,0.5389,0.7615
,0.5450,0.7654
,0.5510,0.7692
,0.5569,0.7730
,0.5627,0.7767
,0.5685,0.7803
,0.5742,0.7838
,0.5809,0.7880
,0.5865,0.7914
,0.5931,0.7954
,0.5985,0.7986
,0.6049,0.8025
,0.6112,0.8062
,0.6174,0.8099
,0.6235,0.8135
,0.6295,0.8170
,0.6354,0.8204
,0.6412,0.8237
,0.6478,0.8276
,0.6535,0.8307
,0.6599,0.8344
,0.6662,0.8379
,0.6732,0.8419
,0.6784,0.8447
,0.6852,0.8485
,0.6918,0.8521
,0.6983,0.8556
,0.7046,0.8590
,0.7108,0.8623
,0.7168,0.8655
,0.7242,0.8694
,0.7299,0.8724
,0.7369,0.8761
,0.7436,0.8796
,0.7502,0.8830
,0.7566,0.8862
,0.7627,0.8894
,0.7699,0.8930
,0.7768,0.8965
,0.7835,0.8999
,0.7900,0.9031
,0.7962,0.9061
,0.8032,0.9096
,0.8099,0.9129
,0.8172,0.9164
,0.8242,0.9198
,0.8309,0.9230
,0.8373,0.9261
,0.8449,0.9297
,0.8521,0.9331
,0.8589,0.9363
,0.8653,0.9393
,0.8726,0.9427
,0.8794,0.9459
,0.8868,0.9493
,0.8947,0.9529
,0.9020,0.9562
,0.9087,0.9593
,0.9164,0.9628
,0.9234,0.9659
,0.9310,0.9693
,0.9378,0.9724
,0.9458,0.9760
,0.9537,0.9795
,0.9611,0.9828
,0.9685,0.9861
,0.9764,0.9896
,0.9838,0.9929
,0.9919,0.9964
,0.9995,0.9998
